REGSET/SYNTH/testbench.vcd
$date
	Fri Dec  9 17:59:11 2016
$end
$version
	Icarus Verilog
$end
$timescale
	1ps
$end
$scope module testbench $end
$var wire 1 ! CommandCRCCheckEnable_in $end
$var wire 1 " CommandCRCCheckEnable_out $end
$var wire 5 # CommandIndex_in [4:0] $end
$var wire 5 $ CommandIndex_out [4:0] $end
$var wire 1 % CommandIndezCheckEnable_in $end
$var wire 1 & CommandIndezCheckEnable_out $end
$var wire 2 ' CommandType_in [1:0] $end
$var wire 2 ( CommandType_out [1:0] $end
$var wire 1 ) DataPresentState_in $end
$var wire 1 * DataPresentState_out $end
$var wire 2 + ResponseTypeSelect_in [1:0] $end
$var wire 2 , ResponseTypeSelect_out [1:0] $end
$var wire 1 - ack $end
$var wire 1 . clock $end
$var wire 1 / enb_block0 $end
$var wire 1 0 enb_block1 $end
$var wire 1 1 enb_block2 $end
$var wire 1 2 reset $end
$scope module probadorreg $end
$var reg 1 3 CommandCRCCheckEnable_in $end
$var reg 5 4 CommandIndex_in [4:0] $end
$var reg 1 5 CommandIndezCheckEnable_in $end
$var reg 2 6 CommandType_in [1:0] $end
$var reg 1 7 DataPresentState_in $end
$var reg 2 8 ResponseTypeSelect_in [1:0] $end
$var reg 1 9 clock $end
$var reg 1 : enb_block0 $end
$var reg 1 ; enb_block1 $end
$var reg 1 < enb_block2 $end
$var reg 1 = reset $end
$upscope $end
$scope module reg0 $end
$var wire 1 ! CommandCRCCheckEnable_in $end
$var wire 1 " CommandCRCCheckEnable_out $end
$var wire 5 > CommandIndex_in [4:0] $end
$var wire 5 ? CommandIndex_out [4:0] $end
$var wire 1 % CommandIndezCheckEnable_in $end
$var wire 1 & CommandIndezCheckEnable_out $end
$var wire 2 @ CommandType_in [1:0] $end
$var wire 2 A CommandType_out [1:0] $end
$var wire 1 ) DataPresentState_in $end
$var wire 1 * DataPresentState_out $end
$var wire 2 B ResponseTypeSelect_in [1:0] $end
$var wire 2 C ResponseTypeSelect_out [1:0] $end
$var wire 16 D _000_ [15:0] $end
$var wire 1 E _001_ $end
$var wire 1 F _002_ $end
$var wire 1 G _003_ $end
$var wire 1 H _004_ $end
$var wire 1 I _005_ $end
$var wire 1 J _006_ $end
$var wire 1 K _007_ $end
$var wire 1 L _008_ $end
$var wire 1 M _009_ $end
$var wire 1 N _010_ $end
$var wire 1 O _011_ $end
$var wire 1 P _012_ $end
$var wire 1 Q _013_ $end
$var wire 1 R _014_ $end
$var wire 1 S _015_ $end
$var wire 1 T _016_ $end
$var wire 1 U _017_ $end
$var wire 1 V _018_ $end
$var wire 1 W _019_ $end
$var wire 1 X _020_ $end
$var wire 1 Y _021_ $end
$var wire 1 Z _022_ $end
$var wire 1 [ _023_ $end
$var wire 1 \ _024_ $end
$var wire 1 ] _025_ $end
$var wire 1 ^ _026_ $end
$var wire 1 _ _027_ $end
$var wire 1 ` _028_ $end
$var wire 1 a _029_ $end
$var wire 1 b _030_ $end
$var wire 1 c _031_ $end
$var wire 1 d _032_ $end
$var wire 1 e _033_ $end
$var wire 1 f _034_ $end
$var wire 1 g _035_ $end
$var wire 1 h _036_ $end
$var wire 1 i _037_ $end
$var wire 1 j _038_ $end
$var wire 1 k _039_ $end
$var wire 1 l _040_ $end
$var wire 1 m _041_ $end
$var wire 1 n _042_ $end
$var wire 1 o _043_ $end
$var wire 1 p _044_ $end
$var wire 1 q _045_ $end
$var wire 1 r _046_ $end
$var wire 1 s _047_ $end
$var wire 1 t _048_ $end
$var wire 1 u _049_ $end
$var wire 1 v _050_ $end
$var wire 1 w _051_ $end
$var wire 1 x _052_ $end
$var wire 1 y _053_ $end
$var wire 1 z _054_ $end
$var wire 1 { _055_ $end
$var wire 1 | _056_ $end
$var wire 1 } _057_ $end
$var wire 1 ~ _058_ $end
$var wire 1 !" _059_ $end
$var wire 1 "" _060_ $end
$var wire 1 #" _061_ $end
$var wire 1 $" _062_ $end
$var wire 1 %" _063_ $end
$var wire 1 &" _064_ $end
$var wire 1 '" _065_ $end
$var wire 1 (" _066_ $end
$var wire 1 )" _067_ $end
$var wire 1 *" _068_ $end
$var wire 1 +" _069_ $end
$var wire 1 ," _070_ $end
$var wire 1 -" _071_ $end
$var wire 1 ." _072_ $end
$var wire 1 /" _073_ $end
$var wire 1 0" _074_ $end
$var wire 1 1" _075_ $end
$var wire 1 2" _076_ $end
$var wire 1 3" _077_ $end
$var wire 1 4" _078_ $end
$var wire 1 5" _079_ $end
$var wire 1 6" _080_ $end
$var wire 1 7" _081_ $end
$var wire 1 8" _082_ $end
$var wire 1 9" _083_ $end
$var wire 1 :" _084_ $end
$var wire 1 ;" _085_ $end
$var wire 1 <" _086_ $end
$var wire 1 =" _087_ $end
$var wire 1 >" _088_ $end
$var wire 1 ?" _089_ $end
$var wire 1 @" _090_ $end
$var wire 1 A" _091_ $end
$var wire 1 B" _092_ $end
$var wire 1 C" _093_ $end
$var wire 1 D" _094_ $end
$var wire 1 E" _095_ $end
$var wire 1 F" _096_ $end
$var wire 1 G" _097_ $end
$var wire 1 H" _098_ $end
$var wire 1 I" _099_ $end
$var wire 1 J" _100_ $end
$var wire 1 K" _101_ $end
$var wire 1 L" _102_ $end
$var wire 1 M" _103_ $end
$var wire 1 N" _104_ $end
$var wire 1 O" _105_ $end
$var wire 1 P" _106_ $end
$var wire 1 Q" _107_ $end
$var wire 1 R" _108_ $end
$var wire 1 S" _109_ $end
$var wire 1 T" _110_ $end
$var wire 1 U" _111_ $end
$var wire 1 V" _112_ $end
$var wire 1 W" _113_ $end
$var wire 1 X" _114_ $end
$var wire 1 Y" _115_ $end
$var wire 1 Z" _116_ $end
$var wire 1 [" _117_ $end
$var wire 1 \" _118_ $end
$var wire 1 ]" _119_ $end
$var wire 1 ^" _120_ $end
$var wire 1 _" _121_ $end
$var wire 1 `" _122_ $end
$var wire 1 a" _123_ $end
$var wire 1 - ack $end
$var wire 1 . clk $end
$var wire 16 b" data_in [15:0] $end
$var wire 16 c" data_out [15:0] $end
$var wire 1 / enb_block0 $end
$var wire 1 0 enb_block1 $end
$var wire 1 1 enb_block2 $end
$var wire 1 2 rst $end
$scope module _124_ $end
$var wire 1 d" A $end
$var wire 1 0" Y $end
$upscope $end
$scope module _125_ $end
$var wire 1 0" A $end
$var wire 1 e" B $end
$var wire 1 1" Y $end
$upscope $end
$scope module _126_ $end
$var wire 1 f" A $end
$var wire 1 2" Y $end
$upscope $end
$scope module _127_ $end
$var wire 1 g" A $end
$var wire 1 2" B $end
$var wire 1 3" Y $end
$upscope $end
$scope module _128_ $end
$var wire 1 3" A $end
$var wire 1 1" B $end
$var wire 1 4" Y $end
$upscope $end
$scope module _129_ $end
$var wire 1 h" A $end
$var wire 1 5" Y $end
$upscope $end
$scope module _130_ $end
$var wire 1 5" A $end
$var wire 1 i" B $end
$var wire 1 6" Y $end
$upscope $end
$scope module _131_ $end
$var wire 1 j" A $end
$var wire 1 7" Y $end
$upscope $end
$scope module _132_ $end
$var wire 1 k" A $end
$var wire 1 7" B $end
$var wire 1 8" Y $end
$upscope $end
$scope module _133_ $end
$var wire 1 8" A $end
$var wire 1 6" B $end
$var wire 1 9" Y $end
$upscope $end
$scope module _134_ $end
$var wire 1 9" A $end
$var wire 1 4" B $end
$var wire 1 :" Y $end
$upscope $end
$scope module _135_ $end
$var wire 1 l" A $end
$var wire 1 ;" Y $end
$upscope $end
$scope module _136_ $end
$var wire 1 m" A $end
$var wire 1 ;" B $end
$var wire 1 <" Y $end
$upscope $end
$scope module _137_ $end
$var wire 1 n" A $end
$var wire 1 =" Y $end
$upscope $end
$scope module _138_ $end
$var wire 1 =" A $end
$var wire 1 o" B $end
$var wire 1 >" Y $end
$upscope $end
$scope module _139_ $end
$var wire 1 >" A $end
$var wire 1 <" B $end
$var wire 1 ?" Y $end
$upscope $end
$scope module _140_ $end
$var wire 1 p" A $end
$var wire 1 @" Y $end
$upscope $end
$scope module _141_ $end
$var wire 1 ) A $end
$var wire 1 @" B $end
$var wire 1 A" Y $end
$upscope $end
$scope module _142_ $end
$var wire 1 ) A $end
$var wire 1 B" Y $end
$upscope $end
$scope module _143_ $end
$var wire 1 B" A $end
$var wire 1 q" B $end
$var wire 1 C" Y $end
$upscope $end
$scope module _144_ $end
$var wire 1 C" A $end
$var wire 1 A" B $end
$var wire 1 D" Y $end
$upscope $end
$scope module _145_ $end
$var wire 1 D" A $end
$var wire 1 ?" B $end
$var wire 1 E" Y $end
$upscope $end
$scope module _146_ $end
$var wire 1 r" A $end
$var wire 1 F" Y $end
$upscope $end
$scope module _147_ $end
$var wire 1 ! A $end
$var wire 1 F" B $end
$var wire 1 G" Y $end
$upscope $end
$scope module _148_ $end
$var wire 1 ! A $end
$var wire 1 H" Y $end
$upscope $end
$scope module _149_ $end
$var wire 1 H" A $end
$var wire 1 s" B $end
$var wire 1 I" Y $end
$upscope $end
$scope module _150_ $end
$var wire 1 I" A $end
$var wire 1 G" B $end
$var wire 1 J" Y $end
$upscope $end
$scope module _151_ $end
$var wire 1 t" A $end
$var wire 1 K" Y $end
$upscope $end
$scope module _152_ $end
$var wire 1 u" A $end
$var wire 1 K" B $end
$var wire 1 L" Y $end
$upscope $end
$scope module _153_ $end
$var wire 1 v" A $end
$var wire 1 M" Y $end
$upscope $end
$scope module _154_ $end
$var wire 1 M" A $end
$var wire 1 w" B $end
$var wire 1 N" Y $end
$upscope $end
$scope module _155_ $end
$var wire 1 N" A $end
$var wire 1 L" B $end
$var wire 1 O" Y $end
$upscope $end
$scope module _156_ $end
$var wire 1 O" A $end
$var wire 1 J" B $end
$var wire 1 P" Y $end
$upscope $end
$scope module _157_ $end
$var wire 1 P" A $end
$var wire 1 E" B $end
$var wire 1 Q" Y $end
$upscope $end
$scope module _158_ $end
$var wire 1 Q" A $end
$var wire 1 :" B $end
$var wire 1 R" Y $end
$upscope $end
$scope module _159_ $end
$var wire 1 x" A $end
$var wire 1 y" B $end
$var wire 1 S" Y $end
$upscope $end
$scope module _160_ $end
$var wire 1 z" A $end
$var wire 1 T" Y $end
$upscope $end
$scope module _161_ $end
$var wire 1 {" A $end
$var wire 1 U" Y $end
$upscope $end
$scope module _162_ $end
$var wire 1 U" A $end
$var wire 1 T" B $end
$var wire 1 V" Y $end
$upscope $end
$scope module _163_ $end
$var wire 1 V" A $end
$var wire 1 S" B $end
$var wire 1 W" Y $end
$upscope $end
$scope module _164_ $end
$var wire 1 |" A $end
$var wire 1 X" Y $end
$upscope $end
$scope module _165_ $end
$var wire 1 % A $end
$var wire 1 Y" Y $end
$upscope $end
$scope module _166_ $end
$var wire 1 Y" A $end
$var wire 1 X" B $end
$var wire 1 Z" Y $end
$upscope $end
$scope module _167_ $end
$var wire 1 % A $end
$var wire 1 }" B $end
$var wire 1 [" Y $end
$upscope $end
$scope module _168_ $end
$var wire 1 [" A $end
$var wire 1 Z" B $end
$var wire 1 \" Y $end
$upscope $end
$scope module _169_ $end
$var wire 1 ~" A $end
$var wire 1 ]" Y $end
$upscope $end
$scope module _170_ $end
$var wire 1 !# A $end
$var wire 1 ^" Y $end
$upscope $end
$scope module _171_ $end
$var wire 1 ^" A $end
$var wire 1 ]" B $end
$var wire 1 _" Y $end
$upscope $end
$scope module _172_ $end
$var wire 1 "# A $end
$var wire 1 ## B $end
$var wire 1 `" Y $end
$upscope $end
$scope module _173_ $end
$var wire 1 `" A $end
$var wire 1 _" B $end
$var wire 1 a" Y $end
$upscope $end
$scope module _174_ $end
$var wire 1 a" A $end
$var wire 1 \" B $end
$var wire 1 E Y $end
$upscope $end
$scope module _175_ $end
$var wire 1 E A $end
$var wire 1 W" B $end
$var wire 1 F Y $end
$upscope $end
$scope module _176_ $end
$var wire 1 $# A $end
$var wire 1 G Y $end
$upscope $end
$scope module _177_ $end
$var wire 1 %# A $end
$var wire 1 H Y $end
$upscope $end
$scope module _178_ $end
$var wire 1 H A $end
$var wire 1 G B $end
$var wire 1 I Y $end
$upscope $end
$scope module _179_ $end
$var wire 1 &# A $end
$var wire 1 '# B $end
$var wire 1 J Y $end
$upscope $end
$scope module _180_ $end
$var wire 1 J A $end
$var wire 1 I B $end
$var wire 1 K Y $end
$upscope $end
$scope module _181_ $end
$var wire 1 (# A $end
$var wire 1 L Y $end
$upscope $end
$scope module _182_ $end
$var wire 1 )# A $end
$var wire 1 M Y $end
$upscope $end
$scope module _183_ $end
$var wire 1 M A $end
$var wire 1 L B $end
$var wire 1 N Y $end
$upscope $end
$scope module _184_ $end
$var wire 1 *# A $end
$var wire 1 O Y $end
$upscope $end
$scope module _185_ $end
$var wire 1 +# A $end
$var wire 1 P Y $end
$upscope $end
$scope module _186_ $end
$var wire 1 P A $end
$var wire 1 O B $end
$var wire 1 Q Y $end
$upscope $end
$scope module _187_ $end
$var wire 1 Q A $end
$var wire 1 N B $end
$var wire 1 R Y $end
$upscope $end
$scope module _188_ $end
$var wire 1 R A $end
$var wire 1 K B $end
$var wire 1 S Y $end
$upscope $end
$scope module _189_ $end
$var wire 1 ,# A $end
$var wire 1 T Y $end
$upscope $end
$scope module _190_ $end
$var wire 1 -# A $end
$var wire 1 U Y $end
$upscope $end
$scope module _191_ $end
$var wire 1 U A $end
$var wire 1 T B $end
$var wire 1 V Y $end
$upscope $end
$scope module _192_ $end
$var wire 1 .# A $end
$var wire 1 /# B $end
$var wire 1 W Y $end
$upscope $end
$scope module _193_ $end
$var wire 1 W A $end
$var wire 1 V B $end
$var wire 1 X Y $end
$upscope $end
$scope module _194_ $end
$var wire 1 0# A $end
$var wire 1 Y Y $end
$upscope $end
$scope module _195_ $end
$var wire 1 1# A $end
$var wire 1 Z Y $end
$upscope $end
$scope module _196_ $end
$var wire 1 Z A $end
$var wire 1 Y B $end
$var wire 1 [ Y $end
$upscope $end
$scope module _197_ $end
$var wire 1 2# A $end
$var wire 1 3# B $end
$var wire 1 \ Y $end
$upscope $end
$scope module _198_ $end
$var wire 1 \ A $end
$var wire 1 [ B $end
$var wire 1 ] Y $end
$upscope $end
$scope module _199_ $end
$var wire 1 ] A $end
$var wire 1 X B $end
$var wire 1 ^ Y $end
$upscope $end
$scope module _200_ $end
$var wire 1 ^ A $end
$var wire 1 S B $end
$var wire 1 _ Y $end
$upscope $end
$scope module _201_ $end
$var wire 1 _ A $end
$var wire 1 F B $end
$var wire 1 ` Y $end
$upscope $end
$scope module _202_ $end
$var wire 1 ` A $end
$var wire 1 R" B $end
$var wire 1 - Y $end
$upscope $end
$scope module _203_ $end
$var wire 1 0 A $end
$var wire 1 a Y $end
$upscope $end
$scope module _204_ $end
$var wire 1 1 A $end
$var wire 1 / B $end
$var wire 1 b Y $end
$upscope $end
$scope module _205_ $end
$var wire 1 b A $end
$var wire 1 a B $end
$var wire 1 c Y $end
$upscope $end
$scope module _206_ $end
$var wire 1 c A $end
$var wire 1 ;" B $end
$var wire 1 d Y $end
$upscope $end
$scope module _207_ $end
$var wire 1 c A $end
$var wire 1 e Y $end
$upscope $end
$scope module _208_ $end
$var wire 1 e A $end
$var wire 1 =" B $end
$var wire 1 f Y $end
$upscope $end
$scope module _209_ $end
$var wire 1 f A $end
$var wire 1 d B $end
$var wire 1 g Y $end
$upscope $end
$scope module _210_ $end
$var wire 1 g A $end
$var wire 1 2 B $end
$var wire 1 4# Y $end
$upscope $end
$scope module _211_ $end
$var wire 1 c A $end
$var wire 1 G B $end
$var wire 1 h Y $end
$upscope $end
$scope module _212_ $end
$var wire 1 e A $end
$var wire 1 H B $end
$var wire 1 i Y $end
$upscope $end
$scope module _213_ $end
$var wire 1 i A $end
$var wire 1 h B $end
$var wire 1 j Y $end
$upscope $end
$scope module _214_ $end
$var wire 1 j A $end
$var wire 1 2 B $end
$var wire 1 5# Y $end
$upscope $end
$scope module _215_ $end
$var wire 1 2 A $end
$var wire 1 k Y $end
$upscope $end
$scope module _216_ $end
$var wire 1 k A $end
$var wire 1 6# B $end
$var wire 1 l Y $end
$upscope $end
$scope module _217_ $end
$var wire 1 l A $end
$var wire 1 c B $end
$var wire 1 7# Y $end
$upscope $end
$scope module _218_ $end
$var wire 1 c A $end
$var wire 1 F" B $end
$var wire 1 m Y $end
$upscope $end
$scope module _219_ $end
$var wire 1 e A $end
$var wire 1 H" B $end
$var wire 1 n Y $end
$upscope $end
$scope module _220_ $end
$var wire 1 n A $end
$var wire 1 m B $end
$var wire 1 o Y $end
$upscope $end
$scope module _221_ $end
$var wire 1 o A $end
$var wire 1 2 B $end
$var wire 1 8# Y $end
$upscope $end
$scope module _222_ $end
$var wire 1 c A $end
$var wire 1 X" B $end
$var wire 1 p Y $end
$upscope $end
$scope module _223_ $end
$var wire 1 e A $end
$var wire 1 Y" B $end
$var wire 1 q Y $end
$upscope $end
$scope module _224_ $end
$var wire 1 q A $end
$var wire 1 p B $end
$var wire 1 r Y $end
$upscope $end
$scope module _225_ $end
$var wire 1 r A $end
$var wire 1 2 B $end
$var wire 1 9# Y $end
$upscope $end
$scope module _226_ $end
$var wire 1 c A $end
$var wire 1 @" B $end
$var wire 1 s Y $end
$upscope $end
$scope module _227_ $end
$var wire 1 e A $end
$var wire 1 B" B $end
$var wire 1 t Y $end
$upscope $end
$scope module _228_ $end
$var wire 1 t A $end
$var wire 1 s B $end
$var wire 1 u Y $end
$upscope $end
$scope module _229_ $end
$var wire 1 u A $end
$var wire 1 2 B $end
$var wire 1 :# Y $end
$upscope $end
$scope module _230_ $end
$var wire 1 c A $end
$var wire 1 T B $end
$var wire 1 v Y $end
$upscope $end
$scope module _231_ $end
$var wire 1 e A $end
$var wire 1 U B $end
$var wire 1 w Y $end
$upscope $end
$scope module _232_ $end
$var wire 1 w A $end
$var wire 1 v B $end
$var wire 1 x Y $end
$upscope $end
$scope module _233_ $end
$var wire 1 x A $end
$var wire 1 2 B $end
$var wire 1 ;# Y $end
$upscope $end
$scope module _234_ $end
$var wire 1 c A $end
$var wire 1 2" B $end
$var wire 1 y Y $end
$upscope $end
$scope module _235_ $end
$var wire 1 e A $end
$var wire 1 0" B $end
$var wire 1 z Y $end
$upscope $end
$scope module _236_ $end
$var wire 1 z A $end
$var wire 1 y B $end
$var wire 1 { Y $end
$upscope $end
$scope module _237_ $end
$var wire 1 { A $end
$var wire 1 2 B $end
$var wire 1 <# Y $end
$upscope $end
$scope module _238_ $end
$var wire 1 c A $end
$var wire 1 K" B $end
$var wire 1 | Y $end
$upscope $end
$scope module _239_ $end
$var wire 1 e A $end
$var wire 1 M" B $end
$var wire 1 } Y $end
$upscope $end
$scope module _240_ $end
$var wire 1 } A $end
$var wire 1 | B $end
$var wire 1 ~ Y $end
$upscope $end
$scope module _241_ $end
$var wire 1 ~ A $end
$var wire 1 2 B $end
$var wire 1 =# Y $end
$upscope $end
$scope module _242_ $end
$var wire 1 c A $end
$var wire 1 ]" B $end
$var wire 1 !" Y $end
$upscope $end
$scope module _243_ $end
$var wire 1 e A $end
$var wire 1 ^" B $end
$var wire 1 "" Y $end
$upscope $end
$scope module _244_ $end
$var wire 1 "" A $end
$var wire 1 !" B $end
$var wire 1 #" Y $end
$upscope $end
$scope module _245_ $end
$var wire 1 #" A $end
$var wire 1 2 B $end
$var wire 1 ># Y $end
$upscope $end
$scope module _246_ $end
$var wire 1 c A $end
$var wire 1 Y B $end
$var wire 1 $" Y $end
$upscope $end
$scope module _247_ $end
$var wire 1 e A $end
$var wire 1 Z B $end
$var wire 1 %" Y $end
$upscope $end
$scope module _248_ $end
$var wire 1 %" A $end
$var wire 1 $" B $end
$var wire 1 &" Y $end
$upscope $end
$scope module _249_ $end
$var wire 1 &" A $end
$var wire 1 2 B $end
$var wire 1 ?# Y $end
$upscope $end
$scope module _250_ $end
$var wire 1 c A $end
$var wire 1 7" B $end
$var wire 1 '" Y $end
$upscope $end
$scope module _251_ $end
$var wire 1 e A $end
$var wire 1 5" B $end
$var wire 1 (" Y $end
$upscope $end
$scope module _252_ $end
$var wire 1 (" A $end
$var wire 1 '" B $end
$var wire 1 )" Y $end
$upscope $end
$scope module _253_ $end
$var wire 1 )" A $end
$var wire 1 2 B $end
$var wire 1 @# Y $end
$upscope $end
$scope module _254_ $end
$var wire 1 c A $end
$var wire 1 T" B $end
$var wire 1 *" Y $end
$upscope $end
$scope module _255_ $end
$var wire 1 e A $end
$var wire 1 U" B $end
$var wire 1 +" Y $end
$upscope $end
$scope module _256_ $end
$var wire 1 +" A $end
$var wire 1 *" B $end
$var wire 1 ," Y $end
$upscope $end
$scope module _257_ $end
$var wire 1 ," A $end
$var wire 1 2 B $end
$var wire 1 A# Y $end
$upscope $end
$scope module _258_ $end
$var wire 1 k A $end
$var wire 1 B# B $end
$var wire 1 -" Y $end
$upscope $end
$scope module _259_ $end
$var wire 1 -" A $end
$var wire 1 c B $end
$var wire 1 C# Y $end
$upscope $end
$scope module _260_ $end
$var wire 1 k A $end
$var wire 1 D# B $end
$var wire 1 ." Y $end
$upscope $end
$scope module _261_ $end
$var wire 1 ." A $end
$var wire 1 c B $end
$var wire 1 E# Y $end
$upscope $end
$scope module _262_ $end
$var wire 1 k A $end
$var wire 1 F# B $end
$var wire 1 /" Y $end
$upscope $end
$scope module _263_ $end
$var wire 1 /" A $end
$var wire 1 c B $end
$var wire 1 G# Y $end
$upscope $end
$scope module _264_ $end
$var wire 1 . C $end
$var wire 1 H# D $end
$var reg 1 I# Q $end
$upscope $end
$scope module _265_ $end
$var wire 1 . C $end
$var wire 1 J# D $end
$var reg 1 K# Q $end
$upscope $end
$scope module _266_ $end
$var wire 1 . C $end
$var wire 1 L# D $end
$var reg 1 M# Q $end
$upscope $end
$scope module _267_ $end
$var wire 1 . C $end
$var wire 1 N# D $end
$var reg 1 O# Q $end
$upscope $end
$scope module _268_ $end
$var wire 1 . C $end
$var wire 1 P# D $end
$var reg 1 Q# Q $end
$upscope $end
$scope module _269_ $end
$var wire 1 . C $end
$var wire 1 R# D $end
$var reg 1 S# Q $end
$upscope $end
$scope module _270_ $end
$var wire 1 . C $end
$var wire 1 T# D $end
$var reg 1 U# Q $end
$upscope $end
$scope module _271_ $end
$var wire 1 . C $end
$var wire 1 V# D $end
$var reg 1 W# Q $end
$upscope $end
$scope module _272_ $end
$var wire 1 . C $end
$var wire 1 X# D $end
$var reg 1 Y# Q $end
$upscope $end
$scope module _273_ $end
$var wire 1 . C $end
$var wire 1 Z# D $end
$var reg 1 [# Q $end
$upscope $end
$scope module _274_ $end
$var wire 1 . C $end
$var wire 1 \# D $end
$var reg 1 ]# Q $end
$upscope $end
$scope module _275_ $end
$var wire 1 . C $end
$var wire 1 ^# D $end
$var reg 1 _# Q $end
$upscope $end
$scope module _276_ $end
$var wire 1 . C $end
$var wire 1 `# D $end
$var reg 1 a# Q $end
$upscope $end
$scope module _277_ $end
$var wire 1 . C $end
$var wire 1 b# D $end
$var reg 1 c# Q $end
$upscope $end
$scope module _278_ $end
$var wire 1 . C $end
$var wire 1 d# D $end
$var reg 1 e# Q $end
$upscope $end
$scope module _279_ $end
$var wire 1 . C $end
$var wire 1 f# D $end
$var reg 1 g# Q $end
$upscope $end
$upscope $end
$upscope $end
$enddefinitions $end
#0
$dumpvars
xg#
0f#
xe#
0d#
xc#
0b#
xa#
0`#
x_#
0^#
x]#
0\#
x[#
0Z#
xY#
0X#
xW#
0V#
xU#
0T#
xS#
0R#
xQ#
0P#
xO#
0N#
xM#
0L#
xK#
0J#
xI#
0H#
0G#
xF#
0E#
xD#
0C#
xB#
0A#
0@#
0?#
0>#
0=#
0<#
0;#
0:#
09#
08#
07#
x6#
05#
04#
x3#
12#
11#
x0#
x/#
0.#
0-#
x,#
x+#
x*#
x)#
x(#
x'#
0&#
0%#
x$#
x##
1"#
1!#
x~"
x}"
x|"
1{"
xz"
xy"
1x"
xw"
0v"
0u"
xt"
xs"
xr"
xq"
xp"
xo"
1n"
1m"
xl"
0k"
xj"
xi"
0h"
1g"
xf"
xe"
1d"
bx c"
b1011010101001 b"
xa"
x`"
1_"
0^"
x]"
x\"
1["
xZ"
1Y"
xX"
xW"
xV"
0U"
xT"
0S"
xR"
xQ"
xP"
xO"
0N"
1M"
xL"
xK"
xJ"
xI"
0H"
0G"
xF"
xE"
xD"
xC"
0B"
0A"
x@"
x?"
x>"
0="
0<"
x;"
x:"
x9"
18"
x7"
x6"
15"
x4"
x3"
x2"
11"
00"
1/"
1."
1-"
x,"
0+"
x*"
x)"
0("
x'"
x&"
0%"
x$"
x#"
0""
x!"
x~
0}
x|
x{
0z
xy
xx
0w
xv
xu
0t
xs
xr
0q
xp
xo
0n
xm
1l
0k
xj
0i
xh
xg
0f
1e
xd
0c
1b
1a
x`
x_
x^
x]
x\
1[
0Z
xY
xX
1W
xV
1U
xT
xS
xR
xQ
xP
xO
xN
xM
xL
xK
1J
xI
1H
xG
xF
xE
b0 D
bx C
b1 B
bx A
b10 @
bx ?
b10110 >
1=
0<
0;
0:
09
b1 8
17
b10 6
05
b10110 4
13
12
01
00
0/
0.
x-
bx ,
b1 +
x*
1)
bx (
b10 '
x&
0%
bx $
b10110 #
x"
1!
$end
#1000
0-
1R"
1`
0Q"
0_
0:"
0F
0S
1P"
1E"
1E
1^
1g
1K
1j
1o
1\"
1r
1u
1X
1x
14"
1{
1O"
1~
1#"
1&"
1)"
1W"
1,"
1R
0?"
0J"
0D"
0a"
0]
09"
0d
0I
0h
0m
0Z"
0p
0s
0V
0v
03"
0y
0L"
0|
0!"
0$"
0'"
0V"
0*"
0Q
0N
1>"
1I"
1C"
1`"
1\
16"
1;"
1G
1O
1F"
1X"
1@"
1T
12"
1K"
1]"
1Y
17"
1T"
1P
1L
1M
0l"
0o"
0$#
0'#
b0 ,
b0 C
0*#
06#
0r"
0s"
0"
0|"
0}"
0&
0p"
0q"
0*
0,#
0/#
0e"
0f"
b0 (
b0 A
0t"
0w"
0~"
0##
00#
03#
0i"
0j"
0y"
0z"
b0 $
b0 ?
0+#
0B#
0(#
0D#
0)#
0F#
0I#
0K#
0M#
0O#
0Q#
0S#
0U#
0W#
0Y#
0[#
0]#
0_#
0a#
0c#
0e#
0g#
b0 c"
19
1.
#2000
09
0.
#3000
19
1.
#4000
09
0.
#5000
19
1.
#6000
09
0.
#7000
19
1.
#8000
09
0.
#9000
19
1.
#10000
09
0.
#11000
19
1.
#12000
09
0.
#13000
19
1.
#14000
09
0.
#15000
1k
19
1.
0=
02
#16000
09
0.
#17000
19
1.
#18000
09
0.
#19000
19
1.
#20000
09
0.
#21000
19
1.
#22000
09
0.
#23000
19
1.
#24000
09
0.
#25000
19
1.
#26000
09
0.
#27000
19
1.
#28000
09
0.
#29000
19
1.
#30000
1H#
1N#
1R#
1V#
1Z#
1\#
1`#
14#
18#
1:#
1<#
1>#
1?#
1A#
b1011010101001 D
0g
0o
0u
0{
0#"
0&"
0,"
1f
1n
1t
1z
1""
1%"
1+"
0e
1c
0b
09
0.
1:
1/
#31000
1-
0`
0R"
1_
1Q"
1F
1:"
0^
0E
0P"
0E"
0W"
04"
1]
1a"
1D"
1J"
1?"
1V"
13"
0\
0`"
0C"
0I"
0>"
0T"
0Y
0]"
02"
0@"
0F"
0;"
1y"
1z"
10#
13#
1~"
1##
b10110 $
b10110 ?
1e"
1f"
b10 (
b10 A
1p"
1q"
1*
1r"
1s"
1"
1l"
1o"
b1 ,
b1 C
1a#
1]#
1[#
1W#
1S#
1O#
1I#
b1011010101001 c"
19
1.
#32000
09
0.
#33000
19
1.
#34000
09
0.
#35000
19
1.
#36000
09
0.
#37000
19
1.
#38000
09
0.
#39000
19
1.
#40000
09
0.
#41000
19
1.
#42000
09
0.
#43000
19
1.
#44000
09
0.
#45000
0a
19
1.
1;
10
#46000
09
0.
#47000
19
1.
#48000
09
0.
#49000
19
1.
#50000
09
0.
#51000
19
1.
#52000
09
0.
#53000
19
1.
#54000
09
0.
#55000
19
1.
#56000
09
0.
#57000
19
1.
#58000
09
0.
#59000
19
1.
#60000
0-
1`
1R"
1J#
1T#
0Z#
0F
0\#
0_
1S
15#
0N#
1P#
0Q"
0R#
1;#
0>#
0?#
08#
19#
0:#
b1000011010011 D
1E
1^
0K
0j
1P"
1E"
0X
0x
1#"
1&"
1o
0\"
0r
1u
0a"
0]
1I
1i
0J"
0D"
1V
1w
0""
0%"
0n
1Z"
1q
0t
1`"
1\
0H
1G"
1A"
0U
1^"
1Z
1%#
1&#
1H"
0Y"
1B"
1-#
1.#
0!#
0"#
01#
02#
1a
09
0.
b11 8
b11 +
b11 B
03
0!
15
1%
07
0)
b11 6
b11 '
b11 @
b10000 4
b1000011010011 b"
b10000 #
b10000 >
0;
00
#61000
1-
0R"
0`
1Q"
1F
1_
0P"
0E"
0S
0E
0^
1J"
1D"
1a"
1]
1K
1\"
1X
0G"
0A"
0_"
0[
0J
0["
0W
0G
1F"
0X"
1@"
0T
1]"
1Y
1$#
1'#
b11 ,
b11 C
0r"
0s"
0"
1|"
1}"
1&
0p"
0q"
0*
1,#
1/#
b11 (
b11 A
0~"
0##
00#
03#
b10000 $
b10000 ?
1K#
0O#
1Q#
0S#
1U#
0[#
0]#
b1000011010011 c"
19
1.
#62000
09
0.
#63000
19
1.
#64000
09
0.
#65000
19
1.
#66000
09
0.
#67000
19
1.
#68000
09
0.
#69000
19
1.
#70000
09
0.
#71000
19
1.
#72000
09
0.
#73000
19
1.
#74000
09
0.
