DMA/testbench.vcd
$date
	Sat Dec 10 00:00:31 2016
$end
$version
	Icarus Verilog
$end
$timescale
	1ps
$end
$scope module fifo_testbench $end
$var wire 1 ! enb_Transfer_complete $end
$var wire 1 " enb_DMA_Interrupt $end
$var wire 1 # enb_ADMA_System_Address_Register $end
$var wire 1 $ enb_ADMA_Error $end
$var wire 1 % clk $end
$var wire 1 & ack_write2 $end
$var wire 1 ' ack_write $end
$var wire 1 ( ack_Transfer_complete $end
$var wire 1 ) ack_DMA_Interrupt $end
$var wire 1 * ack_ADMA_System_Address_Register $end
$var wire 1 + ack_ADMA_Error $end
$var wire 1 , Transfer_complete $end
$var wire 16 - Transfer_Mode_Register [15:0] $end
$var wire 32 . Present_State_Register [31:0] $end
$var wire 1 / Permiso_Transf $end
$var wire 64 0 Initial_ADMA_System_Address [63:0] $end
$var wire 1 1 Full_out2 $end
$var wire 1 2 Full_out $end
$var wire 1 3 Empty_out2 $end
$var wire 1 4 Empty_out $end
$var wire 32 5 Data_out2 [31:0] $end
$var wire 32 6 Data_out [31:0] $end
$var wire 1 7 DMA_Interrupt $end
$var wire 16 8 Command_Register [15:0] $end
$var wire 16 9 Block_Size_Register [15:0] $end
$var wire 8 : Block_Gap_Control_Register [7:0] $end
$var wire 16 ; Block_Count_Register [15:0] $end
$var wire 64 < ADMA_System_Address_Register [63:0] $end
$var wire 1 = ADMA_Error $end
$var reg 1 > Clear_in $end
$var reg 1 ? Clear_in2 $end
$var reg 1 @ clock $end
$var reg 1 A clock2 $end
$var reg 1 B enable_read $end
$var reg 1 C enable_read2 $end
$var reg 1 D enable_write $end
$var reg 1 E enable_write2 $end
$var reg 32 F parallel [31:0] $end
$var reg 32 G parallel2 [31:0] $end
$var reg 1 H sd_clock $end
$var reg 1 I sd_clock2 $end
$scope module FIFO $end
$var wire 32 J Data_in [31:0] $end
$var wire 1 H RClk $end
$var wire 1 B ReadEn_in $end
$var wire 1 @ WClk $end
$var wire 1 D WriteEn_in $end
$var wire 40 K cuarenta_bits [39:0] $end
$var reg 32 L Data_out [31:0] $end
$var reg 1 4 Empty_out $end
$var reg 1 2 Full_out $end
$var reg 1 ' ack_write $end
$var reg 1024 M buffer [1023:0] $end
$var reg 11 N count [10:0] $end
$var reg 4 O state [3:0] $end
$upscope $end
$scope module FIFO2 $end
$var wire 32 P Data_in [31:0] $end
$var wire 1 I RClk $end
$var wire 1 C ReadEn_in $end
$var wire 1 A WClk $end
$var wire 1 E WriteEn_in $end
$var wire 40 Q cuarenta_bits [39:0] $end
$var reg 32 R Data_out [31:0] $end
$var reg 1 3 Empty_out $end
$var reg 1 1 Full_out $end
$var reg 1 & ack_write $end
$var reg 1024 S buffer [1023:0] $end
$var reg 11 T count [10:0] $end
$var reg 4 U state [3:0] $end
$upscope $end
$scope module adma1 $end
$var wire 1 V transferencia_finalizada $end
$var wire 1 % clk $end
$var wire 1 ( ack_Transfer_complete $end
$var wire 1 ) ack_DMA_Interrupt $end
$var wire 1 * ack_ADMA_System_Address_Register $end
$var wire 1 + ack_ADMA_Error $end
$var wire 2 W Transfer_Type [1:0] $end
$var wire 16 X Transfer_Mode_Register [15:0] $end
$var wire 32 Y Present_State_Register [31:0] $end
$var wire 64 Z Initial_ADMA_System_Address [63:0] $end
$var wire 96 [ Descriptor_Line [95:0] $end
$var wire 16 \ Command_Register [15:0] $end
$var wire 16 ] Block_Size_Register [15:0] $end
$var wire 8 ^ Block_Gap_Control_Register [7:0] $end
$var wire 16 _ Block_Count_Register [15:0] $end
$var reg 1 = ADMA_Error $end
$var reg 64 ` ADMA_System_Address_Register [63:0] $end
$var reg 2 a Act [1:0] $end
$var reg 1 b Act1 $end
$var reg 1 c Act2 $end
$var reg 1 d Block_Count_Enable $end
$var reg 1 e Command_Reg_Write_or_Continue $end
$var reg 2 f Command_Type [1:0] $end
$var reg 1 g Continue_Request $end
$var reg 64 h DAT_ADR [63:0] $end
$var reg 16 i DAT_LEN [15:0] $end
$var reg 1 j DMA_Eneable $end
$var reg 1 7 DMA_Interrupt $end
$var reg 1 k Data_Transfer_Direction_Select $end
$var reg 1 l End $end
$var reg 1 m Int $end
$var reg 1 n Multi_Single_Block_Select $end
$var reg 4 o Next_State [3:0] $end
$var reg 1 / Permiso_Transf $end
$var reg 4 p Present_State [3:0] $end
$var reg 1 q Read_Transfer_Active $end
$var reg 64 r SYS_ADR [63:0] $end
$var reg 1 s Stop_At_Block_Gap_Request $end
$var reg 1 t TFC $end
$var reg 1 u Tran $end
$var reg 12 v Transfer_Block_Size [11:0] $end
$var reg 4 w Transfer_Mode_Direction [3:0] $end
$var reg 1 , Transfer_complete $end
$var reg 1 x Valid $end
$var reg 1 y Write_Transfer_Active $end
$var reg 1 $ enb_ADMA_Error $end
$var reg 1 # enb_ADMA_System_Address_Register $end
$var reg 1 " enb_DMA_Interrupt $end
$var reg 1 ! enb_Transfer_complete $end
$scope module t1 $end
$var wire 1 d Block_Count_Enable $end
$var wire 1 n Multi_Single_Block_Select $end
$var reg 2 z Temporal [1:0] $end
$var reg 2 { Transfer_Type [1:0] $end
$upscope $end
$scope module table1 $end
$var wire 64 | SYS_ADR [63:0] $end
$var reg 96 } Descriptor_Line [95:0] $end
$upscope $end
$scope module tran1 $end
$var wire 64 ~ DAT_ADR [63:0] $end
$var wire 16 !" DAT_LEN [15:0] $end
$var wire 1 k Data_Transfer_Direction_Select $end
$var wire 1 / Permiso_Transf $end
$var reg 16 "" transfer_data_length [15:0] $end
$var reg 1 V transferencia_finalizada $end
$upscope $end
$upscope $end
$scope module p1 $end
$var reg 64 #" Initial_ADMA_System_Address [63:0] $end
$var reg 1 + ack_ADMA_Error $end
$var reg 1 * ack_ADMA_System_Address_Register $end
$var reg 1 ) ack_DMA_Interrupt $end
$var reg 1 ( ack_Transfer_complete $end
$var reg 1 % clk $end
$upscope $end
$scope module r1 $end
$var reg 16 $" Block_Count_Register [15:0] $end
$var reg 8 %" Block_Gap_Control_Register [7:0] $end
$var reg 16 &" Block_Size_Register [15:0] $end
$var reg 16 '" Command_Register [15:0] $end
$var reg 32 (" Present_State_Register [31:0] $end
$var reg 16 )" Transfer_Mode_Register [15:0] $end
$upscope $end
$upscope $end
$enddefinitions $end
#0
$dumpvars
b110011 )"
b1100000000 ("
b11000000 '"
b1 &"
b11 %"
b1 $"
b1 #"
b0 ""
b0 !"
b0 ~
b100000000000000010000000000100001 }
b1 |
b10 {
b11 z
1y
1x
b10 w
b1 v
0u
0t
1s
b1 r
1q
b1 p
b1 o
1n
0m
0l
1k
1j
b0 i
b0 h
1g
b11 f
1e
1d
0c
0b
b0 a
b1 `
b1 _
b11 ^
b1 ]
b11000000 \
b100000000000000010000000000100001 [
b1 Z
b1100000000 Y
b110011 X
b10 W
1V
b0 U
b0 T
bx S
bx R
bx Q
bx P
b0 O
b0 N
bx M
bx L
bx K
bx J
xI
0H
bx G
bx F
xE
1D
xC
1B
xA
0@
x?
1>
0=
b1 <
b1 ;
b11 :
b1 9
b11000000 8
07
bx 6
bx 5
14
13
02
01
b1 0
0/
b1100000000 .
b110011 -
0,
1+
1*
1)
1(
x'
x&
0%
0$
0#
0"
0!
$end
#2000
b0 K
b0 M
b0 6
b0 L
b1 O
1@
#4000
0@
b1111110010110000000110101010 F
b1111110010110000000110101010 J
#6000
b100 O
1@
1H
#8000
0@
#9000
b1111110010111100101011111110 F
b1111110010111100101011111110 J
#10000
b1111110010111100101011111110 K
b1111110010111100101011111110 M
b100000 N
1@
#12000
0@
0H
#13000
b1000111001010111111101111 F
b1000111001010111111101111 J
#14000
b1111111000000001000111001010111111101111 K
04
b111111001011110010101111111000000001000111001010111111101111 M
b1000000 N
1@
#16000
0@
#17000
b1000100010001000000000000 F
b1000100010001000000000000 J
#18000
b1110111100000001000100010001000000000000 K
b11111100101111001010111111100000000100011100101011111110111100000001000100010001000000000000 M
b1100000 N
b1111110010111100101011111110 6
b1111110010111100101011111110 L
1@
1H
#20000
0@
#22000
b1000100010001000000000000 K
b1111110010111100101011111110000000010001110010101111111011110000000100010001000100000000000000000001000100010001000000000000 M
b10000000 N
1@
#23000
b1111111111111111111111111111 F
b1111111111111111111111111111 J
#24000
b1100000 N
0@
0H
#26000
b1000111001010111111101111 K
b111111001011110010101111111000000001000111001010111111101111000000010001000100010000000000000000000100010001000100000000000000000001000111001010111111101111 M
b10000000 N
1@
b1000111001010111111101111 F
b1000111001010111111101111 J
#28000
0@
#30000
b1110111100000000000000000000000000001011 K
b11111100101111001010111111100000000100011100101011111110111100000001000100010001000000000000000000010001000100010000000000000000000100011100101011111110111100000000000000000000000000001011 M
b10100000 N
b1000111001010111111101111 6
b1000111001010111111101111 L
1@
b1011 F
b1011 J
1H
#32000
0@
#34000
b101100000000000000000000000000001011 K
b1111110010111100101011111110000000010001110010101111111011110000000100010001000100000000000000000001000100010001000000000000000000010001110010101111111011110000000000000000000000000000101100000000000000000000000000001011 M
b11000000 N
1@
#35000
b0 F
b0 J
#36000
b10100000 N
0@
0H
#38000
b101100000000000000000000000000001110 K
b111111001011110010101111111000000001000111001010111111101111000000010001000100010000000000000000000100010001000100000000000000000001000111001010111111101111000000000000000000000000000010110000000000000000000000000000101100000000000000000000000000001110 M
b11000000 N
1@
b1110 F
b1110 J
#40000
0@
#42000
b111000000000000000000000000000001110 K
b11111100101111001010111111100000000100011100101011111110111100000001000100010001000000000000000000010001000100010000000000000000000100011100101011111110111100000000000000000000000000001011000000000000000000000000000010110000000000000000000000000000111000000000000000000000000000001110 M
b11100000 N
b1000100010001000000000000 6
b1000100010001000000000000 L
1@
1H
#43000
b111 F
b111 J
#44000
0@
#46000
b111000000000000000000000000000000111 K
b1111110010111100101011111110000000010001110010101111111011110000000100010001000100000000000000000001000100010001000000000000000000010001110010101111111011110000000000000000000000000000101100000000000000000000000000001011000000000000000000000000000011100000000000000000000000000000111000000000000000000000000000000111 M
b100000000 N
1@
#48000
b11100000 N
0@
0H
#49000
b101 F
b101 J
#50000
b11100000000000000000000000000000101 K
b111111001011110010101111111000000001000111001010111111101111000000010001000100010000000000000000000100010001000100000000000000000001000111001010111111101111000000000000000000000000000010110000000000000000000000000000101100000000000000000000000000001110000000000000000000000000000011100000000000000000000000000000011100000000000000000000000000000101 M
b100000000 N
1@
#52000
0@
#54000
b10100000000000000000000000000000000 K
b11111100101111001010111111100000000100011100101011111110111100000001000100010001000000000000000000010001000100010000000000000000000100011100101011111110111100000000000000000000000000001011000000000000000000000000000010110000000000000000000000000000111000000000000000000000000000001110000000000000000000000000000001110000000000000000000000000000010100000000000000000000000000000000 M
b100100000 N
1@
b0 F
b0 J
1H
#56000
0@
#58000
b0 K
b1111110010111100101011111110000000010001110010101111111011110000000100010001000100000000000000000001000100010001000000000000000000010001110010101111111011110000000000000000000000000000101100000000000000000000000000001011000000000000000000000000000011100000000000000000000000000000111000000000000000000000000000000111000000000000000000000000000001010000000000000000000000000000000000000000000000000000000000000000 M
b101000000 N
1@
#59000
0B
#60000
0@
0H
#62000
b111111001011110010101111111000000001000111001010111111101111000000010001000100010000000000000000000100010001000100000000000000000001000111001010111111101111000000000000000000000000000010110000000000000000000000000000101100000000000000000000000000001110000000000000000000000000000011100000000000000000000000000000011100000000000000000000000000000101000000000000000000000000000000000000000000000000000000000000000000000000000000000000000000000000 M
b101100000 N
1@
#64000
0@
#66000
b11111100101111001010111111100000000100011100101011111110111100000001000100010001000000000000000000010001000100010000000000000000000100011100101011111110111100000000000000000000000000001011000000000000000000000000000010110000000000000000000000000000111000000000000000000000000000001110000000000000000000000000000001110000000000000000000000000000010100000000000000000000000000000000000000000000000000000000000000000000000000000000000000000000000000000000000000000000000000000000 M
b110000000 N
1@
1H
#68000
0@
#70000
b1111110010111100101011111110000000010001110010101111111011110000000100010001000100000000000000000001000100010001000000000000000000010001110010101111111011110000000000000000000000000000101100000000000000000000000000001011000000000000000000000000000011100000000000000000000000000000111000000000000000000000000000000111000000000000000000000000000001010000000000000000000000000000000000000000000000000000000000000000000000000000000000000000000000000000000000000000000000000000000000000000000000000000000000000000 M
b110100000 N
1@
#72000
0@
0H
#74000
b111111001011110010101111111000000001000111001010111111101111000000010001000100010000000000000000000100010001000100000000000000000001000111001010111111101111000000000000000000000000000010110000000000000000000000000000101100000000000000000000000000001110000000000000000000000000000011100000000000000000000000000000011100000000000000000000000000000101000000000000000000000000000000000000000000000000000000000000000000000000000000000000000000000000000000000000000000000000000000000000000000000000000000000000000000000000000000000000000000000000 M
b111000000 N
1@
#76000
0@
#78000
b11111100101111001010111111100000000100011100101011111110111100000001000100010001000000000000000000010001000100010000000000000000000100011100101011111110111100000000000000000000000000001011000000000000000000000000000010110000000000000000000000000000111000000000000000000000000000001110000000000000000000000000000001110000000000000000000000000000010100000000000000000000000000000000000000000000000000000000000000000000000000000000000000000000000000000000000000000000000000000000000000000000000000000000000000000000000000000000000000000000000000000000000000000000000000000000 M
b111100000 N
1@
1H
#80000
0@
#82000
b1111110010111100101011111110000000010001110010101111111011110000000100010001000100000000000000000001000100010001000000000000000000010001110010101111111011110000000000000000000000000000101100000000000000000000000000001011000000000000000000000000000011100000000000000000000000000000111000000000000000000000000000000111000000000000000000000000000001010000000000000000000000000000000000000000000000000000000000000000000000000000000000000000000000000000000000000000000000000000000000000000000000000000000000000000000000000000000000000000000000000000000000000000000000000000000000000000000000000000000000000000 M
b1000000000 N
1@
#84000
0@
0H
#86000
b111111001011110010101111111000000001000111001010111111101111000000010001000100010000000000000000000100010001000100000000000000000001000111001010111111101111000000000000000000000000000010110000000000000000000000000000101100000000000000000000000000001110000000000000000000000000000011100000000000000000000000000000011100000000000000000000000000000101000000000000000000000000000000000000000000000000000000000000000000000000000000000000000000000000000000000000000000000000000000000000000000000000000000000000000000000000000000000000000000000000000000000000000000000000000000000000000000000000000000000000000000000000000000000000000000000000 M
b1000100000 N
1@
#88000
0@
#89000
0A
0I
1C
1E
1?
1B
#90000
b11111100101111001010111111100000000100011100101011111110111100000001000100010001000000000000000000010001000100010000000000000000000100011100101011111110111100000000000000000000000000001011000000000000000000000000000010110000000000000000000000000000111000000000000000000000000000001110000000000000000000000000000001110000000000000000000000000000010100000000000000000000000000000000000000000000000000000000000000000000000000000000000000000000000000000000000000000000000000000000000000000000000000000000000000000000000000000000000000000000000000000000000000000000000000000000000000000000000000000000000000000000000000000000000000000000000000000000000000000000000000000000 M
b1001000000 N
1@
1H
#92000
0@
#93000
b1111110010110000000110101010 G
b1111110010110000000110101010 P
#94000
b1111110010111100101011111110000000010001110010101111111011110000000100010001000100000000000000000001000100010001000000000000000000010001110010101111111011110000000000000000000000000000101100000000000000000000000000001011000000000000000000000000000011100000000000000000000000000000111000000000000000000000000000000111000000000000000000000000000001010000000000000000000000000000000000000000000000000000000000000000000000000000000000000000000000000000000000000000000000000000000000000000000000000000000000000000000000000000000000000000000000000000000000000000000000000000000000000000000000000000000000000000000000000000000000000000000000000000000000000000000000000000000000000000000000000000000000000000 M
b1001100000 N
1@
#96000
b1001000000 N
0@
0H
#98000
b111111001011110010101111111000000001000111001010111111101111000000010001000100010000000000000000000100010001000100000000000000000001000111001010111111101111000000000000000000000000000010110000000000000000000000000000101100000000000000000000000000001110000000000000000000000000000011100000000000000000000000000000011100000000000000000000000000000101000000000000000000000000000000000000000000000000000000000000000000000000000000000000000000000000000000000000000000000000000000000000000000000000000000000000000000000000000000000000000000000000000000000000000000000000000000000000000000000000000000000000000000000000000000000000000000000000000000000000000000000000000000000000000000000000000000000000000000000000000000000000000000000000 M
b1001100000 N
1@
b1111110010111100101011111110 G
b1111110010111100101011111110 P
#100000
b10 a
0$
0"
17
1=
b1 h
b1 ~
b1 i
b1 !"
1c
b10 p
0#
b10 o
1%
0@
#102000
b11111100101111001010111111100000000100011100101011111110111100000001000100010001000000000000000000010001000100010000000000000000000100011100101011111110111100000000000000000000000000001011000000000000000000000000000010110000000000000000000000000000111000000000000000000000000000001110000000000000000000000000000001110000000000000000000000000000010100000000000000000000000000000000000000000000000000000000000000000000000000000000000000000000000000000000000000000000000000000000000000000000000000000000000000000000000000000000000000000000000000000000000000000000000000000000000000000000000000000000000000000000000000000000000000000000000000000000000000000000000000000000000000000000000000000000000000000000000000000000000000000000000000000000000000000000000000000000 M
b1010000000 N
b1000111001010111111101111 6
b1000111001010111111101111 L
1@
b1000111001010111111101111 G
b1000111001010111111101111 P
1H
#104000
0@
#106000
b1111110010111100101011111110000000010001110010101111111011110000000100010001000100000000000000000001000100010001000000000000000000010001110010101111111011110000000000000000000000000000101100000000000000000000000000001011000000000000000000000000000011100000000000000000000000000000111000000000000000000000000000000111000000000000000000000000000001010000000000000000000000000000000000000000000000000000000000000000000000000000000000000000000000000000000000000000000000000000000000000000000000000000000000000000000000000000000000000000000000000000000000000000000000000000000000000000000000000000000000000000000000000000000000000000000000000000000000000000000000000000000000000000000000000000000000000000000000000000000000000000000000000000000000000000000000000000000000000000000000000000000000000000 M
b1010100000 N
1@
b1000100010001000000000000 G
b1000100010001000000000000 P
#108000
b1010000000 N
0@
0H
#110000
b111111001011110010101111111000000001000111001010111111101111000000010001000100010000000000000000000100010001000100000000000000000001000111001010111111101111000000000000000000000000000010110000000000000000000000000000101100000000000000000000000000001110000000000000000000000000000011100000000000000000000000000000011100000000000000000000000000000101000000000000000000000000000000000000000000000000000000000000000000000000000000000000000000000000000000000000000000000000000000000000000000000000000000000000000000000000000000000000000000000000000000000000000000000000000000000000000000000000000000000000000000000000000000000000000000000000000000000000000000000000000000000000000000000000000000000000000000000000000000000000000000000000000000000000000000000000000000000000000000000000000000000000000000000000000000000000000000000000 M
b1010100000 N
1@
#112000
0@
b1111111111111111111111111111 G
b1111111111111111111111111111 P
#114000
b11111100101111001010111111100000000100011100101011111110111100000001000100010001000000000000000000010001000100010000000000000000000100011100101011111110111100000000000000000000000000001011000000000000000000000000000010110000000000000000000000000000111000000000000000000000000000001110000000000000000000000000000001110000000000000000000000000000010100000000000000000000000000000000000000000000000000000000000000000000000000000000000000000000000000000000000000000000000000000000000000000000000000000000000000000000000000000000000000000000000000000000000000000000000000000000000000000000000000000000000000000000000000000000000000000000000000000000000000000000000000000000000000000000000000000000000000000000000000000000000000000000000000000000000000000000000000000000000000000000000000000000000000000000000000000000000000000000000000000000000000000000000000000000 M
b1011000000 N
b1011 6
b1011 L
1@
1H
#115000
b1000111001010111111101111 G
b1000111001010111111101111 P
#116000
0@
#118000
b1111110010111100101011111110000000010001110010101111111011110000000100010001000100000000000000000001000100010001000000000000000000010001110010101111111011110000000000000000000000000000101100000000000000000000000000001011000000000000000000000000000011100000000000000000000000000000111000000000000000000000000000000111000000000000000000000000000001010000000000000000000000000000000000000000000000000000000000000000000000000000000000000000000000000000000000000000000000000000000000000000000000000000000000000000000000000000000000000000000000000000000000000000000000000000000000000000000000000000000000000000000000000000000000000000000000000000000000000000000000000000000000000000000000000000000000000000000000000000000000000000000000000000000000000000000000000000000000000000000000000000000000000000000000000000000000000000000000000000000000000000000000000000000000000000000000000000000000000000 M
b1011100000 N
1@
#119000
b1011 G
b1011 P
#120000
b1011000000 N
0@
0H
#122000
b111111001011110010101111111000000001000111001010111111101111000000010001000100010000000000000000000100010001000100000000000000000001000111001010111111101111000000000000000000000000000010110000000000000000000000000000101100000000000000000000000000001110000000000000000000000000000011100000000000000000000000000000011100000000000000000000000000000101000000000000000000000000000000000000000000000000000000000000000000000000000000000000000000000000000000000000000000000000000000000000000000000000000000000000000000000000000000000000000000000000000000000000000000000000000000000000000000000000000000000000000000000000000000000000000000000000000000000000000000000000000000000000000000000000000000000000000000000000000000000000000000000000000000000000000000000000000000000000000000000000000000000000000000000000000000000000000000000000000000000000000000000000000000000000000000000000000000000000000000000000000000000000000000000000 M
b1011100000 N
1@
#124000
0@
b0 G
b0 P
#126000
b11111100101111001010111111100000000100011100101011111110111100000001000100010001000000000000000000010001000100010000000000000000000100011100101011111110111100000000000000000000000000001011000000000000000000000000000010110000000000000000000000000000111000000000000000000000000000001110000000000000000000000000000001110000000000000000000000000000010100000000000000000000000000000000000000000000000000000000000000000000000000000000000000000000000000000000000000000000000000000000000000000000000000000000000000000000000000000000000000000000000000000000000000000000000000000000000000000000000000000000000000000000000000000000000000000000000000000000000000000000000000000000000000000000000000000000000000000000000000000000000000000000000000000000000000000000000000000000000000000000000000000000000000000000000000000000000000000000000000000000000000000000000000000000000000000000000000000000000000000000000000000000000000000000000000000000000000000000000000000000 M
b1100000000 N
1@
1H
#127000
b1110 G
b1110 P
#128000
0@
#130000
b1111110010111100101011111110000000010001110010101111111011110000000100010001000100000000000000000001000100010001000000000000000000010001110010101111111011110000000000000000000000000000101100000000000000000000000000001011000000000000000000000000000011100000000000000000000000000000111000000000000000000000000000000111000000000000000000000000000001010000000000000000000000000000000000000000000000000000000000000000000000000000000000000000000000000000000000000000000000000000000000000000000000000000000000000000000000000000000000000000000000000000000000000000000000000000000000000000000000000000000000000000000000000000000000000000000000000000000000000000000000000000000000000000000000000000000000000000000000000000000000000000000000000000000000000000000000000000000000000000000000000000000000000000000000000000000000000000000000000000000000000000000000000000000000000000000000000000000000000000000000000000000000000000000000000000000000000000000000000000000000000000000000000000000000000000 M
b1100100000 N
1@
#132000
b1100000000 N
0@
b111 G
b111 P
0H
#134000
b111111001011110010101111111000000001000111001010111111101111000000010001000100010000000000000000000100010001000100000000000000000001000111001010111111101111000000000000000000000000000010110000000000000000000000000000101100000000000000000000000000001110000000000000000000000000000011100000000000000000000000000000011100000000000000000000000000000101000000000000000000000000000000000000000000000000000000000000000000000000000000000000000000000000000000000000000000000000000000000000000000000000000000000000000000000000000000000000000000000000000000000000000000000000000000000000000000000000000000000000000000000000000000000000000000000000000000000000000000000000000000000000000000000000000000000000000000000000000000000000000000000000000000000000000000000000000000000000000000000000000000000000000000000000000000000000000000000000000000000000000000000000000000000000000000000000000000000000000000000000000000000000000000000000000000000000000000000000000000000000000000000000000000000000000000000000000000000000000000000000 M
b1100100000 N
1@
#136000
0@
#138000
b100011100101011111110111100000001000100010001000000000000000000010001000100010000000000000000000100011100101011111110111100000000000000000000000000001011000000000000000000000000000010110000000000000000000000000000111000000000000000000000000000001110000000000000000000000000000001110000000000000000000000000000010100000000000000000000000000000000000000000000000000000000000000000000000000000000000000000000000000000000000000000000000000000000000000000000000000000000000000000000000000000000000000000000000000000000000000000000000000000000000000000000000000000000000000000000000000000000000000000000000000000000000000000000000000000000000000000000000000000000000000000000000000000000000000000000000000000000000000000000000000000000000000000000000000000000000000000000000000000000000000000000000000000000000000000000000000000000000000000000000000000000000000000000000000000000000000000000000000000000000000000000000000000000000000000000000000000000000000000000000000000000000000000000000000000000000000000000000000000000 M
b1101000000 N
b1110 6
b1110 L
1@
b101 G
b101 P
1H
#140000
0@
#142000
b100010001000100000000000000000001000100010001000000000000000000010001110010101111111011110000000000000000000000000000101100000000000000000000000000001011000000000000000000000000000011100000000000000000000000000000111000000000000000000000000000000111000000000000000000000000000001010000000000000000000000000000000000000000000000000000000000000000000000000000000000000000000000000000000000000000000000000000000000000000000000000000000000000000000000000000000000000000000000000000000000000000000000000000000000000000000000000000000000000000000000000000000000000000000000000000000000000000000000000000000000000000000000000000000000000000000000000000000000000000000000000000000000000000000000000000000000000000000000000000000000000000000000000000000000000000000000000000000000000000000000000000000000000000000000000000000000000000000000000000000000000000000000000000000000000000000000000000000000000000000000000000000000000000000000000000000000000000000000000000000000000000000000000000000000000000000000000000000000000000 M
b1101100000 N
1@
#143000
b0 G
b0 P
#144000
b1101000000 N
0@
0H
#146000
b100010001000100000000000000000001000111001010111111101111000000000000000000000000000010110000000000000000000000000000101100000000000000000000000000001110000000000000000000000000000011100000000000000000000000000000011100000000000000000000000000000101000000000000000000000000000000000000000000000000000000000000000000000000000000000000000000000000000000000000000000000000000000000000000000000000000000000000000000000000000000000000000000000000000000000000000000000000000000000000000000000000000000000000000000000000000000000000000000000000000000000000000000000000000000000000000000000000000000000000000000000000000000000000000000000000000000000000000000000000000000000000000000000000000000000000000000000000000000000000000000000000000000000000000000000000000000000000000000000000000000000000000000000000000000000000000000000000000000000000000000000000000000000000000000000000000000000000000000000000000000000000000000000000000000000000000000000000000000000000000000000000000000000000000000000000000000000000000000000000 M
b1101100000 N
1@
#148000
0@
0C
#150000
b100011100101011111110111100000000000000000000000000001011000000000000000000000000000010110000000000000000000000000000111000000000000000000000000000001110000000000000000000000000000001110000000000000000000000000000010100000000000000000000000000000000000000000000000000000000000000000000000000000000000000000000000000000000000000000000000000000000000000000000000000000000000000000000000000000000000000000000000000000000000000000000000000000000000000000000000000000000000000000000000000000000000000000000000000000000000000000000000000000000000000000000000000000000000000000000000000000000000000000000000000000000000000000000000000000000000000000000000000000000000000000000000000000000000000000000000000000000000000000000000000000000000000000000000000000000000000000000000000000000000000000000000000000000000000000000000000000000000000000000000000000000000000000000000000000000000000000000000000000000000000000000000000000000000000000000000000000000000000000000000000000000000000000000000000000000000000000000000000000000 M
b1110000000 N
1@
1H
#152000
0@
#154000
b101100000000000000000000000000001011000000000000000000000000000011100000000000000000000000000000111000000000000000000000000000000111000000000000000000000000000001010000000000000000000000000000000000000000000000000000000000000000000000000000000000000000000000000000000000000000000000000000000000000000000000000000000000000000000000000000000000000000000000000000000000000000000000000000000000000000000000000000000000000000000000000000000000000000000000000000000000000000000000000000000000000000000000000000000000000000000000000000000000000000000000000000000000000000000000000000000000000000000000000000000000000000000000000000000000000000000000000000000000000000000000000000000000000000000000000000000000000000000000000000000000000000000000000000000000000000000000000000000000000000000000000000000000000000000000000000000000000000000000000000000000000000000000000000000000000000000000000000000000000000000000000000000000000000000000000000000000000000000000000000000000000000000000000000000000000000 M
b1110100000 N
1@
#156000
b1110000000 N
0@
0H
#158000
b101100000000000000000000000000001110000000000000000000000000000011100000000000000000000000000000011100000000000000000000000000000101000000000000000000000000000000000000000000000000000000000000000000000000000000000000000000000000000000000000000000000000000000000000000000000000000000000000000000000000000000000000000000000000000000000000000000000000000000000000000000000000000000000000000000000000000000000000000000000000000000000000000000000000000000000000000000000000000000000000000000000000000000000000000000000000000000000000000000000000000000000000000000000000000000000000000000000000000000000000000000000000000000000000000000000000000000000000000000000000000000000000000000000000000000000000000000000000000000000000000000000000000000000000000000000000000000000000000000000000000000000000000000000000000000000000000000000000000000000000000000000000000000000000000000000000000000000000000000000000000000000000000000000000000000000000000000000000000000000000000000000000000000000000000000000000 M
b1110100000 N
1@
#160000
0@
#162000
b111000000000000000000000000000001110000000000000000000000000000001110000000000000000000000000000010100000000000000000000000000000000000000000000000000000000000000000000000000000000000000000000000000000000000000000000000000000000000000000000000000000000000000000000000000000000000000000000000000000000000000000000000000000000000000000000000000000000000000000000000000000000000000000000000000000000000000000000000000000000000000000000000000000000000000000000000000000000000000000000000000000000000000000000000000000000000000000000000000000000000000000000000000000000000000000000000000000000000000000000000000000000000000000000000000000000000000000000000000000000000000000000000000000000000000000000000000000000000000000000000000000000000000000000000000000000000000000000000000000000000000000000000000000000000000000000000000000000000000000000000000000000000000000000000000000000000000000000000000000000000000000000000000000000000000000000000000000000000000000000000000000000000000000000000000000000 M
b1111000000 N
b111 6
b111 L
1@
1H
#164000
0@
#166000
12
b111000000000000000000000000000000111000000000000000000000000000001010000000000000000000000000000000000000000000000000000000000000000000000000000000000000000000000000000000000000000000000000000000000000000000000000000000000000000000000000000000000000000000000000000000000000000000000000000000000000000000000000000000000000000000000000000000000000000000000000000000000000000000000000000000000000000000000000000000000000000000000000000000000000000000000000000000000000000000000000000000000000000000000000000000000000000000000000000000000000000000000000000000000000000000000000000000000000000000000000000000000000000000000000000000000000000000000000000000000000000000000000000000000000000000000000000000000000000000000000000000000000000000000000000000000000000000000000000000000000000000000000000000000000000000000000000000000000000000000000000000000000000000000000000000000000000000000000000000000000000000000000000000000000000000000000000000000000000000000000000000000000000000000000000000000000000 M
b1111100000 N
1@
#168000
02
b1111000000 N
0@
0H
#170000
12
b11100000000000000000000000000000101000000000000000000000000000000000000000000000000000000000000000000000000000000000000000000000000000000000000000000000000000000000000000000000000000000000000000000000000000000000000000000000000000000000000000000000000000000000000000000000000000000000000000000000000000000000000000000000000000000000000000000000000000000000000000000000000000000000000000000000000000000000000000000000000000000000000000000000000000000000000000000000000000000000000000000000000000000000000000000000000000000000000000000000000000000000000000000000000000000000000000000000000000000000000000000000000000000000000000000000000000000000000000000000000000000000000000000000000000000000000000000000000000000000000000000000000000000000000000000000000000000000000000000000000000000000000000000000000000000000000000000000000000000000000000000000000000000000000000000000000000000000000000000000000000000000000000000000000000000000000000000000000000000000000000000000000000000000000000000000000 M
b1111100000 N
1@
#172000
0@
#174000
02
b1 O
b10100000000000000000000000000000000000000000000000000000000000000000000000000000000000000000000000000000000000000000000000000000000000000000000000000000000000000000000000000000000000000000000000000000000000000000000000000000000000000000000000000000000000000000000000000000000000000000000000000000000000000000000000000000000000000000000000000000000000000000000000000000000000000000000000000000000000000000000000000000000000000000000000000000000000000000000000000000000000000000000000000000000000000000000000000000000000000000000000000000000000000000000000000000000000000000000000000000000000000000000000000000000000000000000000000000000000000000000000000000000000000000000000000000000000000000000000000000000000000000000000000000000000000000000000000000000000000000000000000000000000000000000000000000000000000000000000000000000000000000000000000000000000000000000000000000000000000000000000000000000000000000000000000000000000000000000000000000000000000000000000000000000000000000000000000000000 M
b10000000000 N
b101 6
b101 L
1@
1H
#176000
0@
#178000
b100 O
1@
1C
#180000
12
b1111100000 N
0@
0H
#182000
02
b1 O
b0 M
b10000000000 N
1@
#184000
0@
#186000
b100 O
b0 6
b0 L
1@
1H
#188000
0@
#190000
b10000100000 N
1@
#192000
b10000000000 N
0@
0H
#194000
b10000100000 N
1@
#196000
0@
#198000
b10001000000 N
bx 6
bx L
1@
1H
