SDHOST/testbench.vcd
$date
	Thu Dec  8 23:23:29 2016
$end
$version
	Icarus Verilog
$end
$timescale
	1ps
$end
$scope module testbench $end
$var wire 1 ! sd_clock $end
$var wire 1 " reset $end
$var wire 1 # cmd_pin_out $end
$var wire 1 $ cmd_pin_in $end
$var wire 1 % clock $end
$var wire 1 & R08h_CPU $end
$var wire 16 ' R032h_CPU_out [15:0] $end
$var wire 16 ( R032h_CPU [15:0] $end
$var wire 32 ) R024h_CPU_out [31:0] $end
$var wire 32 * R024h_CPU [31:0] $end
$var wire 16 + R00eh_CPU_out [15:0] $end
$var wire 16 , R00eh_CPU [15:0] $end
$var wire 1 - R008h_CPU_outh $end
$scope module SDHOST1 $end
$var wire 32 . R008h_CPU [31:0] $end
$var wire 16 / R030h_CPU [15:0] $end
$var wire 1 ! sd_clock $end
$var wire 128 0 response_outReg [127:0] $end
$var wire 128 1 response_outCMD [127:0] $end
$var wire 1 " reset $end
$var wire 1 2 enable_response $end
$var wire 1 3 enable_command_complete $end
$var wire 1 4 command_complete $end
$var wire 1 # cmd_pin_out $end
$var wire 1 $ cmd_pin_in $end
$var wire 1 % clock $end
$var wire 1 5 ack_response $end
$var wire 1 6 ack_command_complete $end
$var wire 16 7 R032h_CPU_out [15:0] $end
$var wire 16 8 R032h_CPU [15:0] $end
$var wire 16 9 R030h_CPU_out [15:0] $end
$var wire 32 : R024h_CPU_out [31:0] $end
$var wire 32 ; R024h_CPU [31:0] $end
$var wire 16 < R00eh_CPU_out [15:0] $end
$var wire 16 = R00eh_CPU [15:0] $end
$var wire 32 > R008h_CPU_out [31:0] $end
$scope module CMD1 $end
$var wire 6 ? cmd_index [5:0] $end
$var wire 1 @ new_command $end
$var wire 1 A no_response $end
$var wire 1 B timeout_enable $end
$var wire 1 C time_out_cf $end
$var wire 1 D strobe_out_ci $end
$var wire 1 E strobe_out_cf $end
$var wire 1 ! sd_clock $end
$var wire 128 F response_out_cf [127:0] $end
$var wire 128 G response [127:0] $end
$var wire 1 " reset $end
$var wire 1 H idle_out_ci $end
$var wire 1 2 enable_response $end
$var wire 1 3 enable_command_complete $end
$var wire 1 4 command_complete $end
$var wire 1 # cmd_pin_out $end
$var wire 1 $ cmd_pin_in $end
$var wire 40 I cmd_out_ci [39:0] $end
$var wire 32 J cmd_argument [31:0] $end
$var wire 1 % clock $end
$var wire 1 5 ack_response $end
$var wire 1 K ack_out_ci $end
$var wire 1 L ack_out_cf $end
$var wire 1 6 ack_command_complete $end
$scope module control_f1 $end
$var wire 1 A no_response $end
$var wire 1 M transmission_complete $end
$var wire 1 E strobe_out $end
$var wire 1 D strobe_in $end
$var wire 1 ! sd_clock $end
$var wire 128 N response [127:0] $end
$var wire 1 O reset_wrapper $end
$var wire 1 " reset $end
$var wire 1 P reception_complete $end
$var wire 1 Q pad_state $end
$var wire 128 R pad_response [127:0] $end
$var wire 1 S pad_enable $end
$var wire 1 T load_send $end
$var wire 1 H idle_in $end
$var wire 1 U enable_stp_wrapper $end
$var wire 1 V enable_pts_wrapper $end
$var wire 1 W data_out $end
$var wire 1 X data_in $end
$var wire 1 C command_timeout $end
$var wire 40 Y cmd_to_send [39:0] $end
$var wire 1 # cmd_pin_out $end
$var wire 1 $ cmd_pin_in $end
$var wire 1 L ack_out $end
$var wire 1 K ack_in $end
$scope module PTS1 $end
$var wire 1 ! sd_clock $end
$var wire 1 O reset $end
$var wire 40 Z parallel [39:0] $end
$var wire 1 T load_send $end
$var wire 1 V enable $end
$var reg 1 M complete $end
$var reg 1 [ next_complete $end
$var reg 40 \ parallel_cargado [39:0] $end
$var reg 1 X serial $end
$var integer 32 ] count [31:0] $end
$upscope $end
$scope module STP1 $end
$var wire 1 W serial $end
$var wire 1 ! sd_clock $end
$var wire 1 O reset $end
$var wire 1 U enable $end
$var reg 1 P complete $end
$var reg 128 ^ parallel [127:0] $end
$var integer 32 _ count [31:0] $end
$upscope $end
$scope module control1 $end
$var wire 1 ` no_response $end
$var wire 128 a pad_response [127:0] $end
$var wire 1 P reception_complete $end
$var wire 1 M transmission_complete $end
$var wire 1 D strobe_in $end
$var wire 1 ! sd_clock $end
$var wire 1 " reset $end
$var wire 1 H idle_in $end
$var wire 1 K ack_in $end
$var reg 1 L ack_out $end
$var reg 1 C command_timeout $end
$var reg 1 V enable_pts_wrapper $end
$var reg 1 U enable_stp_wrapper $end
$var reg 1 b enable_stp_wrapper_2 $end
$var reg 1 T load_send $end
$var reg 8 c next_state [7:0] $end
$var reg 1 S pad_enable $end
$var reg 1 Q pad_state $end
$var reg 1 d problem $end
$var reg 1 e prueba $end
$var reg 1 O reset_wrapper $end
$var reg 1 f reset_wrapper_2 $end
$var reg 128 g response [127:0] $end
$var reg 8 h state [7:0] $end
$var reg 1 E strobe_out $end
$var integer 32 i count [31:0] $end
$upscope $end
$scope module pad1 $end
$var wire 1 X data_in $end
$var wire 1 Q enable $end
$var wire 1 S output_input $end
$var wire 1 ! sd_clock $end
$var wire 1 $ i_port $end
$var reg 1 W data_out $end
$var reg 1 # o_port $end
$upscope $end
$upscope $end
$scope module control_i1 $end
$var wire 1 L ack_in $end
$var wire 128 j cmd_in [127:0] $end
$var wire 6 k cmd_index [5:0] $end
$var wire 1 @ new_command $end
$var wire 1 E strobe_in $end
$var wire 1 C time_out $end
$var wire 1 B timeout_enable $end
$var wire 1 " reset $end
$var wire 32 l cmd_argument [31:0] $end
$var wire 1 % clock $end
$var wire 1 5 ack_response $end
$var wire 1 6 ack_command_complete $end
$var reg 1 K ack_out $end
$var reg 40 m cmd_out [39:0] $end
$var reg 1 4 command_complete $end
$var reg 1 3 enable_command_complete $end
$var reg 1 2 enable_response $end
$var reg 1 H idle_out $end
$var reg 4 n next_state [3:0] $end
$var reg 128 o response [127:0] $end
$var reg 4 p state [3:0] $end
$var reg 1 D strobe_out $end
$upscope $end
$upscope $end
$scope module R008h $end
$var wire 32 q CommandArgument_in [31:0] $end
$var wire 32 r data_in [31:0] $end
$var wire 1 " rst $end
$var wire 1 % clk $end
$var wire 32 s CommandArgument_out [31:0] $end
$var reg 32 t data_out [31:0] $end
$upscope $end
$scope module R00eh $end
$var wire 1 u CommandCRCCheckEnable_in $end
$var wire 6 v CommandIndex_in [5:0] $end
$var wire 1 w CommandIndezCheckEnable_in $end
$var wire 2 x CommandType_in [1:0] $end
$var wire 1 y DataPresentState_in $end
$var wire 2 z ResponseTypeSelect_in [1:0] $end
$var wire 1 " rst $end
$var wire 16 { data_in [15:0] $end
$var wire 1 % clk $end
$var wire 2 | ResponseTypeSelect_out [1:0] $end
$var wire 1 } DataPresentState_out $end
$var wire 2 ~ CommandType_out [1:0] $end
$var wire 1 !" CommandIndezCheckEnable_out $end
$var wire 6 "" CommandIndex_out [5:0] $end
$var wire 1 #" CommandCRCCheckEnable_out $end
$var reg 16 $" data_out [15:0] $end
$upscope $end
$scope module R010h $end
$var wire 128 %" Response_in [127:0] $end
$var wire 128 &" Response_out [127:0] $end
$var wire 128 '" data_in [127:0] $end
$var wire 1 2 enb_block0 $end
$var wire 1 " rst $end
$var wire 1 % clk $end
$var reg 1 5 ack $end
$var reg 128 (" data_out [127:0] $end
$upscope $end
$scope module R024h $end
$var wire 1 )" BufferReadEnable_in $end
$var wire 1 *" BufferWriteEnable_in $end
$var wire 1 +" CMDLineSignalLevel_in $end
$var wire 1 ," CardDetectPinLevel_in $end
$var wire 1 -" CardInserted_in $end
$var wire 1 ." CardStateStable_in $end
$var wire 1 /" CommandInhibitcmd_in $end
$var wire 1 0" CommandInhibitdat_in $end
$var wire 4 1" DAT3LineSignalLevel_in [3:0] $end
$var wire 1 2" DATlineActive_in $end
$var wire 1 3" ReadTransferActive_in $end
$var wire 1 4" WriteProtectSwitchPinLevel $end
$var wire 1 5" WriteTransferActive_in $end
$var wire 1 " rst $end
$var wire 32 6" data_in [31:0] $end
$var wire 1 % clk $end
$var wire 1 7" WriteTransferActive_out $end
$var wire 1 8" WriteProtectSwitchPinLevout $end
$var wire 1 9" ReadTransferActive_out $end
$var wire 1 :" DATlineActive_out $end
$var wire 4 ;" DAT3LineSignalLevel_out [3:0] $end
$var wire 1 <" CommandInhibitdat_out $end
$var wire 1 =" CommandInhibitcmd_out $end
$var wire 1 >" CardStateStable_out $end
$var wire 1 ?" CardInserted_out $end
$var wire 1 @" CardDetectPinLevel_out $end
$var wire 1 A" CMDLineSignalLevel_out $end
$var wire 1 B" BufferWriteEnable_out $end
$var wire 1 C" BufferReadEnable_out $end
$var reg 32 D" data_out [31:0] $end
$upscope $end
$scope module R030h $end
$var wire 1 E" BlockGapEvent_in $end
$var wire 1 F" BuffReadReady_in $end
$var wire 1 G" BuffWriteReady_in $end
$var wire 1 H" CardInsertion_in $end
$var wire 1 I" CardInterrupt_in $end
$var wire 1 J" CardRemoval_in $end
$var wire 1 4 CommandComplete_in $end
$var wire 1 K" DMAInterrupt_in $end
$var wire 1 L" ErrInterrupt_in $end
$var wire 1 M" TransferComplete_in $end
$var wire 1 3 enb_block0 $end
$var wire 1 N" enb_block1 $end
$var wire 1 O" enb_block2 $end
$var wire 1 " rst $end
$var wire 16 P" data_in [15:0] $end
$var wire 1 % clk $end
$var wire 1 Q" TransferComplete_out $end
$var wire 1 R" ErrInterrupt_out $end
$var wire 1 S" DMAInterrupt_out $end
$var wire 1 T" CommandComplete_out $end
$var wire 1 U" CardRemoval_out $end
$var wire 1 V" CardInterrupt_out $end
$var wire 1 W" CardInsertion_out $end
$var wire 1 X" BuffWriteReady_out $end
$var wire 1 Y" BuffReadReady_out $end
$var wire 1 Z" BlockGapEvent_out $end
$var reg 1 6 ack $end
$var reg 16 [" data_out [15:0] $end
$upscope $end
$scope module R032h $end
$var wire 1 \" ADMAErr_in $end
$var wire 1 ]" AutoCMD12Err_in $end
$var wire 1 ^" CommandCRCErr_in $end
$var wire 1 _" CommandEndBitErr_in $end
$var wire 1 `" CommandIndexErr_in $end
$var wire 1 a" CommandTimeoutErr_in $end
$var wire 1 b" CurrentLimitErr_in $end
$var wire 1 c" DataCRCErr_in $end
$var wire 1 d" DataEndBitErr_in $end
$var wire 1 e" DataTimeoutErr_in $end
$var wire 4 f" VendorErr_in [3:0] $end
$var wire 1 " rst $end
$var wire 16 g" data_in [15:0] $end
$var wire 1 % clk $end
$var wire 4 h" VendorErr_out [3:0] $end
$var wire 1 i" DataTimeoutErr_out $end
$var wire 1 j" DataEndBitErr_out $end
$var wire 1 k" DataCRCErr_out $end
$var wire 1 l" CurrentLimitErr_out $end
$var wire 1 m" CommandTimeoutErr_out $end
$var wire 1 n" CommandIndexErr_out $end
$var wire 1 o" CommandEndBitErr_out $end
$var wire 1 p" CommandCRCErr_out $end
$var wire 1 q" AutoCMD12Err_out $end
$var wire 1 r" ADMAErr_out $end
$var reg 16 s" data_out [15:0] $end
$upscope $end
$upscope $end
$scope module valores $end
$var reg 32 t" R008h_CPU [31:0] $end
$var reg 16 u" R00eh_CPU [15:0] $end
$var reg 32 v" R024h_CPU [31:0] $end
$var reg 16 w" R032h_CPU [15:0] $end
$var reg 1 % clock $end
$var reg 1 $ cmd_pin_in $end
$var reg 1 " reset $end
$var reg 1 ! sd_clock $end
$upscope $end
$upscope $end
$enddefinitions $end
#0
$dumpvars
b1111111010100001 w"
b11001010111111101100101011110000 v"
b11001111001010 u"
b10111110101111101011111010111110 t"
bx s"
xr"
xq"
xp"
xo"
xn"
xm"
xl"
xk"
xj"
xi"
bx h"
b1111001010100001 g"
b1111 f"
0e"
0d"
1c"
1b"
1a"
0`"
0_"
0^"
0]"
1\"
bx ["
xZ"
xY"
xX"
xW"
xV"
xU"
xT"
xS"
xR"
xQ"
bz000000zzzzzzzz0 P"
zO"
zN"
zM"
zL"
zK"
zJ"
zI"
zH"
zG"
zF"
zE"
bx D"
xC"
xB"
xA"
x@"
x?"
x>"
x="
x<"
bx ;"
x:"
x9"
x8"
x7"
b111111100000101000000000 6"
05"
14"
13"
02"
b1111 1"
00"
0/"
1."
0-"
1,"
0+"
0*"
1)"
bx ("
b0 '"
bx &"
b0 %"
bx $"
x#"
bx ""
x!"
bx ~
x}
bx |
b11001111001010 {
b10 z
0y
b11 x
0w
b110011 v
1u
bx t
bx s
b0zzzzzzzzzzzzzzzz r
b0zzzzzzzzzzzzzzzz q
b1 p
b0 o
b10 n
b0 m
bx l
bx k
bx000000000000000 j
b0 i
b1 h
bx000000000000000 g
0f
0e
0d
b10 c
0b
bx a
z`
b0 _
bx ^
b0 ]
bx \
x[
b0 Z
b0 Y
xX
xW
0V
0U
0T
0S
bx R
0Q
xP
0O
bx000000000000000 N
xM
0L
0K
bx J
b0 I
0H
b0 G
bx000000000000000 F
0E
0D
0C
xB
zA
x@
bx ?
bx >
b11001111001010 =
bzxxxxxxxxxxxzxx <
b11001010111111101100101011110000 ;
bzxxxxxxxxxzzzzxxxxzzzzzxxx :
bxzzzzzzxxxxxxxxx 9
b1111111010100001 8
bxzzxxxxxxxxxx 7
06
05
04
03
02
b0 1
bx 0
bz /
b0zzzzzzzzzzzzzzzz .
x-
b11001111001010 ,
bzxxxxxxxxxxxzxx +
b11001010111111101100101011110000 *
bzxxxxxxxxxzzzzxxxxzzzzzxxx )
b1111111010100001 (
bxzzxxxxxxxxxx '
0&
0%
0$
x#
1"
0!
$end
#1000
1f
1H
b0 ?
b0 k
0B
0@
b0 ""
b0 ~
0}
0!"
0#"
bz00000000000z00 +
bz00000000000z00 <
b0 |
0-
15
0R"
0V"
0U"
0W"
0Y"
0X"
0S"
0Z"
0Q"
b0zzzzzz000000000 9
0T"
b0 h"
0r"
0q"
0l"
0j"
0k"
0i"
0n"
0o"
0p"
b0zz0000000000 '
b0zz0000000000 7
0m"
0A"
b0 ;"
08"
0@"
0>"
0?"
0C"
0B"
09"
07"
0:"
0<"
bz000000000zzzz0000zzzzz000 )
bz000000000zzzz0000zzzzz000 :
0="
b10 h
zW
z#
b10 p
b0 $"
b0 >
b0 J
b0 l
b0 s
b0 t
b0 0
b0 &"
b0 ("
b0 ["
b0 s"
b0 D"
0[
0P
1!
1%
#2000
1O
0M
0!
0%
1$
0"
#3000
1B
b110011 ?
b110011 k
b1111 ;"
18"
1@"
1>"
1C"
bz011111110zzzz1010zzzzz000 )
bz011111110zzzz1010zzzzz000 :
19"
b1111 h"
1r"
1l"
1k"
b1111zz1010100001 '
b1111zz1010100001 7
1m"
z-
b110011 ""
b11 ~
1#"
bz11001111001z10 +
bz11001111001z10 <
b10 |
b0 R
b0 ^
b0 a
b0 \
0X
b111111100000101000000000 D"
b1111001010100001 s"
b0zzzzzzzzzzzzzzzz >
b0zzzzzzzzzzzzzzzz J
b0zzzzzzzzzzzzzzzz l
b0zzzzzzzzzzzzzzzz s
b0zzzzzzzzzzzzzzzz t
b11001111001010 $"
1!
1%
#4000
0!
0%
0$
#5000
1!
1%
#6000
0!
0%
1$
#7000
1!
1%
#8000
0!
0%
0$
#9000
1!
1%
#10000
0!
0%
1$
#11000
1!
1%
#12000
0!
0%
0$
#13000
1!
1%
#14000
0!
0%
1$
#15000
1!
1%
#16000
0!
0%
0$
#17000
1!
1%
#18000
0!
0%
1$
#19000
1!
1%
#20000
0!
0%
0$
#21000
1!
1%
#22000
0!
0%
1$
#23000
1!
1%
#24000
0!
0%
0$
#25000
1!
1%
#26000
0!
0%
1$
#27000
1!
1%
#28000
0!
0%
0$
#29000
1!
1%
#30000
0!
0%
1$
#31000
1!
1%
#32000
b111111100000101000000001 6"
1/"
0!
0%
0$
b11001010111111101100101011110001 *
b11001010111111101100101011110001 ;
b11001010111111101100101011110001 v"
#33000
0H
b100 n
1@
bz011111110zzzz1010zzzzz001 )
bz011111110zzzz1010zzzzz001 :
1="
b111111100000101000000001 D"
1!
1%
#34000
0!
0%
1$
#35000
b100 c
b1000 n
b11100110000000000000000zzzzzzzzzzzzzzzz I
b11100110000000000000000zzzzzzzzzzzzzzzz Y
b11100110000000000000000zzzzzzzzzzzzzzzz Z
b11100110000000000000000zzzzzzzzzzzzzzzz m
1D
b100 p
1!
1%
#36000
0!
0%
0$
#37000
1e
1S
1Q
1V
b100 h
b1000 p
1!
1%
#38000
0O
0!
0%
1$
#39000
0#
b11100110000000000000000zzzzzzzzzzzzzzzz \
b1000 c
1!
1%
#40000
0!
0%
0$
#41000
1T
b1000 h
1!
1%
#42000
0!
0%
1$
#43000
b1 ]
1!
1%
#44000
0!
0%
0$
#45000
1X
b10 ]
1!
1%
#46000
0!
0%
1$
#47000
1#
b11 ]
1!
1%
#48000
0!
0%
0$
#49000
b100 ]
1!
1%
#50000
0!
0%
1$
#51000
b101 ]
0X
1!
1%
#52000
0!
0%
0$
#53000
b110 ]
0#
1!
1%
#54000
0!
0%
1$
#55000
b111 ]
1X
1!
1%
#56000
0!
0%
0$
#57000
b1000 ]
1#
1!
1%
#58000
0!
0%
1$
#59000
b1001 ]
0X
1!
1%
#60000
0!
0%
0$
#61000
b1010 ]
0#
1!
1%
#62000
0!
0%
1$
#63000
b1011 ]
1!
1%
#64000
0!
0%
0$
#65000
b1100 ]
1!
1%
#66000
0!
0%
1$
#67000
b1101 ]
1!
1%
#68000
0!
0%
0$
#69000
b1110 ]
1!
1%
#70000
0!
0%
1$
#71000
b1111 ]
1!
1%
#72000
0!
0%
0$
#73000
b10000 ]
1!
1%
#74000
0!
0%
1$
#75000
b10001 ]
1!
1%
#76000
0!
0%
0$
#77000
b10010 ]
1!
1%
#78000
0!
0%
1$
#79000
b10011 ]
1!
1%
#80000
0!
0%
0$
#81000
b10100 ]
1!
1%
#82000
0!
0%
1$
#83000
b10101 ]
1!
1%
#84000
0!
0%
0$
#85000
b10110 ]
1!
1%
#86000
0!
0%
1$
#87000
b10111 ]
1!
1%
#88000
0!
0%
0$
#89000
b11000 ]
1!
1%
#90000
0!
0%
1$
#91000
b11001 ]
zX
1!
1%
#92000
0!
0%
0$
#93000
b11010 ]
z#
1!
1%
#94000
0!
0%
1$
#95000
b11011 ]
1!
1%
#96000
0!
0%
0$
#97000
b11100 ]
1!
1%
#98000
0!
0%
1$
#99000
b11101 ]
1!
1%
#100000
0!
0%
0$
#101000
b11110 ]
1!
1%
#102000
0!
0%
1$
#103000
b11111 ]
1!
1%
#104000
0!
0%
0$
#105000
b100000 ]
1!
1%
#106000
0!
0%
1$
#107000
b100001 ]
1!
1%
#108000
0!
0%
0$
#109000
b100010 ]
1!
1%
#110000
0!
0%
1$
#111000
b100011 ]
1!
1%
#112000
0!
0%
0$
#113000
b100100 ]
1!
1%
#114000
0!
0%
1$
#115000
b100101 ]
1!
1%
#116000
0!
0%
0$
#117000
b100110 ]
1!
1%
#118000
0!
0%
1$
#119000
b100111 ]
1!
1%
#120000
0!
0%
0$
#121000
b0 ]
1[
1!
1%
#122000
b10000 c
1M
0!
0%
1$
#123000
1b
0S
b1 ]
0X
b10000 h
0[
1!
1%
#124000
0M
b1 i
0!
0%
0$
#125000
1U
1X
b10 ]
0W
1!
1%
#126000
b10 i
0!
0%
1$
#127000
1W
b11 ]
b1 _
1!
1%
#128000
b11 i
0!
0%
0$
#129000
b100 ]
b100000000000000000000000000000000000000000000000000000000000000000000000000000000000000000000000000000000000000000000000000000 R
b100000000000000000000000000000000000000000000000000000000000000000000000000000000000000000000000000000000000000000000000000000 ^
b100000000000000000000000000000000000000000000000000000000000000000000000000000000000000000000000000000000000000000000000000000 a
0W
b10 _
1!
1%
#130000
b100 i
0!
0%
1$
#131000
1W
b0 R
b0 ^
b0 a
b101 ]
0X
b11 _
1!
1%
#132000
b101 i
0!
0%
0$
#133000
b110 ]
b1000000000000000000000000000000000000000000000000000000000000000000000000000000000000000000000000000000000000000000000000000 R
b1000000000000000000000000000000000000000000000000000000000000000000000000000000000000000000000000000000000000000000000000000 ^
b1000000000000000000000000000000000000000000000000000000000000000000000000000000000000000000000000000000000000000000000000000 a
0W
b100 _
1!
1%
#134000
b110 i
0!
0%
1$
#135000
1W
b0 R
b0 ^
b0 a
b111 ]
1X
b101 _
1!
1%
#136000
b111 i
0!
0%
0$
#137000
b1000 ]
b10000000000000000000000000000000000000000000000000000000000000000000000000000000000000000000000000000000000000000000000000 R
b10000000000000000000000000000000000000000000000000000000000000000000000000000000000000000000000000000000000000000000000000 ^
b10000000000000000000000000000000000000000000000000000000000000000000000000000000000000000000000000000000000000000000000000 a
0W
b110 _
1!
1%
#138000
b1000 i
0!
0%
1$
#139000
1W
b0 R
b0 ^
b0 a
b1001 ]
0X
b111 _
1!
1%
#140000
b1001 i
0!
0%
0$
#141000
b1010 ]
b100000000000000000000000000000000000000000000000000000000000000000000000000000000000000000000000000000000000000000000000 R
b100000000000000000000000000000000000000000000000000000000000000000000000000000000000000000000000000000000000000000000000 ^
b100000000000000000000000000000000000000000000000000000000000000000000000000000000000000000000000000000000000000000000000 a
0W
b1000 _
1!
1%
#142000
b1010 i
0!
0%
1$
#143000
1W
b0 R
b0 ^
b0 a
b1011 ]
b1001 _
1!
1%
#144000
b1011 i
0!
0%
0$
#145000
b1100 ]
b1000000000000000000000000000000000000000000000000000000000000000000000000000000000000000000000000000000000000000000000 R
b1000000000000000000000000000000000000000000000000000000000000000000000000000000000000000000000000000000000000000000000 ^
b1000000000000000000000000000000000000000000000000000000000000000000000000000000000000000000000000000000000000000000000 a
0W
b1010 _
1!
1%
#146000
b1100 i
0!
0%
1$
#147000
1W
b0 R
b0 ^
b0 a
b1101 ]
b1011 _
1!
1%
#148000
b1101 i
0!
0%
0$
#149000
b1110 ]
b10000000000000000000000000000000000000000000000000000000000000000000000000000000000000000000000000000000000000000000 R
b10000000000000000000000000000000000000000000000000000000000000000000000000000000000000000000000000000000000000000000 ^
b10000000000000000000000000000000000000000000000000000000000000000000000000000000000000000000000000000000000000000000 a
0W
b1100 _
1!
1%
#150000
b1110 i
0!
0%
1$
#151000
1W
b0 R
b0 ^
b0 a
b1111 ]
b1101 _
1!
1%
#152000
b1111 i
0!
0%
0$
#153000
b10000 ]
b100000000000000000000000000000000000000000000000000000000000000000000000000000000000000000000000000000000000000000 R
b100000000000000000000000000000000000000000000000000000000000000000000000000000000000000000000000000000000000000000 ^
b100000000000000000000000000000000000000000000000000000000000000000000000000000000000000000000000000000000000000000 a
0W
b1110 _
1!
1%
#154000
b10000 i
0!
0%
1$
#155000
1W
b0 R
b0 ^
b0 a
b10001 ]
b1111 _
1!
1%
#156000
b10001 i
0!
0%
0$
#157000
b10010 ]
b1000000000000000000000000000000000000000000000000000000000000000000000000000000000000000000000000000000000000000 R
b1000000000000000000000000000000000000000000000000000000000000000000000000000000000000000000000000000000000000000 ^
b1000000000000000000000000000000000000000000000000000000000000000000000000000000000000000000000000000000000000000 a
0W
b10000 _
1!
1%
#158000
b10010 i
0!
0%
1$
#159000
1W
b0 R
b0 ^
b0 a
b10011 ]
b10001 _
1!
1%
#160000
b10011 i
0!
0%
0$
#161000
b10100 ]
b10000000000000000000000000000000000000000000000000000000000000000000000000000000000000000000000000000000000000 R
b10000000000000000000000000000000000000000000000000000000000000000000000000000000000000000000000000000000000000 ^
b10000000000000000000000000000000000000000000000000000000000000000000000000000000000000000000000000000000000000 a
0W
b10010 _
1!
1%
#162000
b10100 i
0!
0%
1$
#163000
1W
b0 R
b0 ^
b0 a
b10101 ]
b10011 _
1!
1%
#164000
b10101 i
0!
0%
0$
#165000
b10110 ]
b100000000000000000000000000000000000000000000000000000000000000000000000000000000000000000000000000000000000 R
b100000000000000000000000000000000000000000000000000000000000000000000000000000000000000000000000000000000000 ^
b100000000000000000000000000000000000000000000000000000000000000000000000000000000000000000000000000000000000 a
0W
b10100 _
1!
1%
#166000
b10110 i
0!
0%
1$
#167000
1W
b0 R
b0 ^
b0 a
b10111 ]
b10101 _
1!
1%
#168000
b10111 i
0!
0%
0$
#169000
b11000 ]
b1000000000000000000000000000000000000000000000000000000000000000000000000000000000000000000000000000000000 R
b1000000000000000000000000000000000000000000000000000000000000000000000000000000000000000000000000000000000 ^
b1000000000000000000000000000000000000000000000000000000000000000000000000000000000000000000000000000000000 a
0W
b10110 _
1!
1%
#170000
b11000 i
0!
0%
1$
#171000
1W
b0 R
b0 ^
b0 a
b11001 ]
zX
b10111 _
1!
1%
#172000
b11001 i
0!
0%
0$
#173000
b11010 ]
b10000000000000000000000000000000000000000000000000000000000000000000000000000000000000000000000000000000 R
b10000000000000000000000000000000000000000000000000000000000000000000000000000000000000000000000000000000 ^
b10000000000000000000000000000000000000000000000000000000000000000000000000000000000000000000000000000000 a
0W
b11000 _
1!
1%
#174000
b11010 i
0!
0%
1$
#175000
1W
b0 R
b0 ^
b0 a
b11011 ]
b11001 _
1!
1%
#176000
b11011 i
0!
0%
0$
#177000
b11100 ]
b100000000000000000000000000000000000000000000000000000000000000000000000000000000000000000000000000000 R
b100000000000000000000000000000000000000000000000000000000000000000000000000000000000000000000000000000 ^
b100000000000000000000000000000000000000000000000000000000000000000000000000000000000000000000000000000 a
0W
b11010 _
1!
1%
#178000
b11100 i
0!
0%
1$
#179000
1W
b0 R
b0 ^
b0 a
b11101 ]
b11011 _
1!
1%
#180000
b11101 i
0!
0%
0$
#181000
b11110 ]
b1000000000000000000000000000000000000000000000000000000000000000000000000000000000000000000000000000 R
b1000000000000000000000000000000000000000000000000000000000000000000000000000000000000000000000000000 ^
b1000000000000000000000000000000000000000000000000000000000000000000000000000000000000000000000000000 a
0W
b11100 _
1!
1%
#182000
b11110 i
0!
0%
1$
#183000
1W
b0 R
b0 ^
b0 a
b11111 ]
b11101 _
1!
1%
#184000
b11111 i
0!
0%
0$
#185000
b100000 ]
b10000000000000000000000000000000000000000000000000000000000000000000000000000000000000000000000000 R
b10000000000000000000000000000000000000000000000000000000000000000000000000000000000000000000000000 ^
b10000000000000000000000000000000000000000000000000000000000000000000000000000000000000000000000000 a
0W
b11110 _
1!
1%
#186000
b100000 i
0!
0%
1$
#187000
1W
b0 R
b0 ^
b0 a
b100001 ]
b11111 _
1!
1%
#188000
b100001 i
0!
0%
0$
#189000
b100010 ]
b100000000000000000000000000000000000000000000000000000000000000000000000000000000000000000000000 R
b100000000000000000000000000000000000000000000000000000000000000000000000000000000000000000000000 ^
b100000000000000000000000000000000000000000000000000000000000000000000000000000000000000000000000 a
0W
b100000 _
1!
1%
#190000
b100010 i
0!
0%
1$
#191000
1W
b0 R
b0 ^
b0 a
b100011 ]
b100001 _
1!
1%
#192000
b100011 i
0!
0%
0$
#193000
b100100 ]
b1000000000000000000000000000000000000000000000000000000000000000000000000000000000000000000000 R
b1000000000000000000000000000000000000000000000000000000000000000000000000000000000000000000000 ^
b1000000000000000000000000000000000000000000000000000000000000000000000000000000000000000000000 a
0W
b100010 _
1!
1%
#194000
b100100 i
0!
0%
1$
#195000
1W
b0 R
b0 ^
b0 a
b100101 ]
b100011 _
1!
1%
#196000
b100101 i
0!
0%
0$
#197000
b100110 ]
b10000000000000000000000000000000000000000000000000000000000000000000000000000000000000000000 R
b10000000000000000000000000000000000000000000000000000000000000000000000000000000000000000000 ^
b10000000000000000000000000000000000000000000000000000000000000000000000000000000000000000000 a
0W
b100100 _
1!
1%
#198000
b100110 i
0!
0%
1$
#199000
1W
b0 R
b0 ^
b0 a
b100111 ]
b100101 _
1!
1%
#200000
b100111 i
0!
0%
0$
#201000
b0 ]
b100000000000000000000000000000000000000000000000000000000000000000000000000000000000000000 R
b100000000000000000000000000000000000000000000000000000000000000000000000000000000000000000 ^
b100000000000000000000000000000000000000000000000000000000000000000000000000000000000000000 a
0W
1[
b100110 _
1!
1%
#202000
b101000 i
1M
0!
0%
1$
#203000
1W
b0 R
b0 ^
b0 a
b1 ]
0X
b100111 _
0[
1!
1%
#204000
0M
b101001 i
0!
0%
0$
#205000
1X
b10 ]
b1000000000000000000000000000000000000000000000000000000000000000000000000000000000000000 R
b1000000000000000000000000000000000000000000000000000000000000000000000000000000000000000 ^
b1000000000000000000000000000000000000000000000000000000000000000000000000000000000000000 a
0W
b101000 _
1!
1%
#206000
b101010 i
0!
0%
1$
#207000
1W
b0 R
b0 ^
b0 a
b11 ]
b101001 _
1!
1%
#208000
b101011 i
0!
0%
0$
#209000
b100 ]
b10000000000000000000000000000000000000000000000000000000000000000000000000000000000000 R
b10000000000000000000000000000000000000000000000000000000000000000000000000000000000000 ^
b10000000000000000000000000000000000000000000000000000000000000000000000000000000000000 a
0W
b101010 _
1!
1%
#210000
b101100 i
0!
0%
1$
#211000
1W
b0 R
b0 ^
b0 a
b101 ]
0X
b101011 _
1!
1%
#212000
b101101 i
0!
0%
0$
#213000
b110 ]
b100000000000000000000000000000000000000000000000000000000000000000000000000000000000 R
b100000000000000000000000000000000000000000000000000000000000000000000000000000000000 ^
b100000000000000000000000000000000000000000000000000000000000000000000000000000000000 a
0W
b101100 _
1!
1%
#214000
b101110 i
0!
0%
1$
#215000
1W
b0 R
b0 ^
b0 a
b111 ]
1X
b101101 _
1!
1%
#216000
b101111 i
0!
0%
0$
#217000
b1000 ]
b1000000000000000000000000000000000000000000000000000000000000000000000000000000000 R
b1000000000000000000000000000000000000000000000000000000000000000000000000000000000 ^
b1000000000000000000000000000000000000000000000000000000000000000000000000000000000 a
0W
b101110 _
1!
1%
#218000
b110000 i
0!
0%
1$
#219000
1W
b0 R
b0 ^
b0 a
b1001 ]
0X
b101111 _
1!
1%
#220000
b110001 i
0!
0%
0$
#221000
b1010 ]
b10000000000000000000000000000000000000000000000000000000000000000000000000000000 R
b10000000000000000000000000000000000000000000000000000000000000000000000000000000 ^
b10000000000000000000000000000000000000000000000000000000000000000000000000000000 a
0W
b110000 _
1!
1%
#222000
b110010 i
0!
0%
1$
#223000
1W
b0 R
b0 ^
b0 a
b1011 ]
b110001 _
1!
1%
#224000
b110011 i
0!
0%
0$
