SDHOST/testbench.vcd
$date
	Fri Dec  9 00:45:03 2016
$end
$version
	Icarus Verilog
$end
$timescale
	1ps
$end
$scope module testbench $end
$var wire 32 ! R008h_CPU [31:0] $end
$var wire 32 " R008h_CPU_out [31:0] $end
$var wire 16 # R00eh_CPU [15:0] $end
$var wire 16 $ R00eh_CPU_out [15:0] $end
$var wire 32 % R024h_CPU [31:0] $end
$var wire 32 & R024h_CPU_out [31:0] $end
$var wire 16 ' R030h_CPU [15:0] $end
$var wire 16 ( R030h_CPU_out [15:0] $end
$var wire 16 ) R032h_CPU [15:0] $end
$var wire 16 * R032h_CPU_out [15:0] $end
$var wire 1 + clock $end
$var wire 1 , cmd_pin_in $end
$var wire 1 - cmd_pin_out $end
$var wire 1 . reset $end
$var wire 1 / sd_clock $end
$scope module valores $end
$var reg 32 0 R008h_CPU [31:0] $end
$var reg 16 1 R00eh_CPU [15:0] $end
$var reg 32 2 R024h_CPU [31:0] $end
$var reg 16 3 R030h_CPU [15:0] $end
$var reg 16 4 R032h_CPU [15:0] $end
$var reg 1 5 clock $end
$var reg 1 6 cmd_pin_in $end
$var reg 1 7 reset $end
$var reg 1 8 sd_clock $end
$upscope $end
$scope module SDHOST1 $end
$var wire 32 9 R008h_CPU [31:0] $end
$var wire 32 : R008h_CPU_out [31:0] $end
$var wire 16 ; R00eh_CPU [15:0] $end
$var wire 16 < R00eh_CPU_out [15:0] $end
$var wire 32 = R024h_CPU [31:0] $end
$var wire 32 > R024h_CPU_out [31:0] $end
$var wire 16 ? R030h_CPU [15:0] $end
$var wire 16 @ R030h_CPU_out [15:0] $end
$var wire 16 A R032h_CPU [15:0] $end
$var wire 16 B R032h_CPU_out [15:0] $end
$var wire 1 C ack_command_complete $end
$var wire 1 D ack_response $end
$var wire 1 + clock $end
$var wire 1 , cmd_pin_in $end
$var wire 1 - cmd_pin_out $end
$var wire 1 E command_complete $end
$var wire 1 F enable_command_complete $end
$var wire 1 G enable_response $end
$var wire 1 . reset $end
$var wire 128 H response_outCMD [127:0] $end
$var wire 128 I response_outReg [127:0] $end
$var wire 1 / sd_clock $end
$scope module CMD1 $end
$var wire 1 C ack_command_complete $end
$var wire 1 J ack_out_cf $end
$var wire 1 K ack_out_ci $end
$var wire 1 D ack_response $end
$var wire 1 + clock $end
$var wire 32 L cmd_argument [31:0] $end
$var wire 6 M cmd_index [5:0] $end
$var wire 40 N cmd_out_ci [39:0] $end
$var wire 1 , cmd_pin_in $end
$var wire 1 - cmd_pin_out $end
$var wire 1 E command_complete $end
$var wire 1 F enable_command_complete $end
$var wire 1 G enable_response $end
$var wire 1 O idle_out_ci $end
$var wire 1 P new_command $end
$var wire 1 Q no_response $end
$var wire 1 . reset $end
$var wire 128 R response [127:0] $end
$var wire 128 S response_out_cf [127:0] $end
$var wire 1 / sd_clock $end
$var wire 1 T strobe_out_cf $end
$var wire 1 U strobe_out_ci $end
$var wire 1 V time_out_cf $end
$var wire 1 W timeout_enable $end
$scope module control_i1 $end
$var wire 1 C ack_command_complete $end
$var wire 1 J ack_in $end
$var wire 1 D ack_response $end
$var wire 1 + clock $end
$var wire 32 X cmd_argument [31:0] $end
$var wire 128 Y cmd_in [127:0] $end
$var wire 6 Z cmd_index [5:0] $end
$var wire 1 P new_command $end
$var wire 1 . reset $end
$var wire 1 T strobe_in $end
$var wire 1 V time_out $end
$var wire 1 W timeout_enable $end
$var reg 1 [ ack_out $end
$var reg 40 \ cmd_out [39:0] $end
$var reg 1 ] command_complete $end
$var reg 1 ^ enable_command_complete $end
$var reg 1 _ enable_response $end
$var reg 1 ` idle_out $end
$var reg 4 a next_state [3:0] $end
$var reg 128 b response [127:0] $end
$var reg 4 c state [3:0] $end
$var reg 1 d strobe_out $end
$upscope $end
$scope module control_f1 $end
$var wire 1 K ack_in $end
$var wire 1 J ack_out $end
$var wire 1 , cmd_pin_in $end
$var wire 1 - cmd_pin_out $end
$var wire 40 e cmd_to_send [39:0] $end
$var wire 1 V command_timeout $end
$var wire 1 f data_in $end
$var wire 1 g data_out $end
$var wire 1 h enable_pts_wrapper $end
$var wire 1 i enable_stp_wrapper $end
$var wire 1 O idle_in $end
$var wire 1 j load_send $end
$var wire 1 Q no_response $end
$var wire 1 k pad_enable $end
$var wire 128 l pad_response [127:0] $end
$var wire 1 m pad_state $end
$var wire 1 n reception_complete $end
$var wire 1 . reset $end
$var wire 1 o reset_wrapper $end
$var wire 128 p response [127:0] $end
$var wire 1 / sd_clock $end
$var wire 1 U strobe_in $end
$var wire 1 T strobe_out $end
$var wire 1 q transmission_complete $end
$scope module control1 $end
$var wire 1 K ack_in $end
$var wire 1 O idle_in $end
$var wire 1 r no_response $end
$var wire 128 s pad_response [127:0] $end
$var wire 1 n reception_complete $end
$var wire 1 . reset $end
$var wire 1 / sd_clock $end
$var wire 1 U strobe_in $end
$var wire 1 q transmission_complete $end
$var reg 1 t ack_out $end
$var reg 1 u command_timeout $end
$var integer 32 v count [31:0] $end
$var reg 1 w enable_pts_wrapper $end
$var reg 1 x enable_stp_wrapper $end
$var reg 1 y enable_stp_wrapper_2 $end
$var reg 1 z load_send $end
$var reg 8 { next_state [7:0] $end
$var reg 1 | pad_enable $end
$var reg 1 } pad_state $end
$var reg 1 ~ problem $end
$var reg 1 !" prueba $end
$var reg 1 "" reset_wrapper $end
$var reg 1 #" reset_wrapper_2 $end
$var reg 128 $" response [127:0] $end
$var reg 8 %" state [7:0] $end
$var reg 1 &" strobe_out $end
$upscope $end
$scope module PTS1 $end
$var wire 1 h enable $end
$var wire 1 j load_send $end
$var wire 40 '" parallel [39:0] $end
$var wire 1 o reset $end
$var wire 1 / sd_clock $end
$var reg 1 (" complete $end
$var integer 32 )" count [31:0] $end
$var reg 1 *" next_complete $end
$var reg 40 +" parallel_cargado [39:0] $end
$var reg 1 ," serial $end
$upscope $end
$scope module STP1 $end
$var wire 1 i enable $end
$var wire 1 o reset $end
$var wire 1 / sd_clock $end
$var wire 1 g serial $end
$var reg 1 -" complete $end
$var integer 32 ." count [31:0] $end
$var reg 128 /" parallel [127:0] $end
$upscope $end
$scope module pad1 $end
$var wire 1 f data_in $end
$var wire 1 m enable $end
$var wire 1 , i_port $end
$var wire 1 k output_input $end
$var wire 1 / sd_clock $end
$var reg 1 0" data_out $end
$var reg 1 1" o_port $end
$upscope $end
$upscope $end
$upscope $end
$scope module R00eh $end
$var wire 1 2" CommandCRCCheckEnable_in $end
$var wire 1 3" CommandCRCCheckEnable_out $end
$var wire 6 4" CommandIndex_in [5:0] $end
$var wire 6 5" CommandIndex_out [5:0] $end
$var wire 1 6" CommandIndezCheckEnable_in $end
$var wire 1 7" CommandIndezCheckEnable_out $end
$var wire 2 8" CommandType_in [1:0] $end
$var wire 2 9" CommandType_out [1:0] $end
$var wire 1 :" DataPresentState_in $end
$var wire 1 ;" DataPresentState_out $end
$var wire 2 <" ResponseTypeSelect_in [1:0] $end
$var wire 2 =" ResponseTypeSelect_out [1:0] $end
$var wire 1 + clk $end
$var wire 16 >" data_in [15:0] $end
$var wire 1 . rst $end
$var reg 16 ?" data_out [15:0] $end
$upscope $end
$scope module R008h $end
$var wire 32 @" CommandArgument_in [31:0] $end
$var wire 32 A" CommandArgument_out [31:0] $end
$var wire 1 + clk $end
$var wire 32 B" data_in [31:0] $end
$var wire 1 . rst $end
$var reg 32 C" data_out [31:0] $end
$upscope $end
$scope module R010h $end
$var wire 128 D" Response_in [127:0] $end
$var wire 128 E" Response_out [127:0] $end
$var wire 1 + clk $end
$var wire 128 F" data_in [127:0] $end
$var wire 1 G enb_block0 $end
$var wire 1 . rst $end
$var reg 1 G" ack $end
$var reg 128 H" data_out [127:0] $end
$upscope $end
$scope module R030h $end
$var wire 1 I" BlockGapEvent_in $end
$var wire 1 J" BlockGapEvent_out $end
$var wire 1 K" BuffReadReady_in $end
$var wire 1 L" BuffReadReady_out $end
$var wire 1 M" BuffWriteReady_in $end
$var wire 1 N" BuffWriteReady_out $end
$var wire 1 O" CardInsertion_in $end
$var wire 1 P" CardInsertion_out $end
$var wire 1 Q" CardInterrupt_in $end
$var wire 1 R" CardInterrupt_out $end
$var wire 1 S" CardRemoval_in $end
$var wire 1 T" CardRemoval_out $end
$var wire 1 E CommandComplete_in $end
$var wire 1 U" CommandComplete_out $end
$var wire 1 V" DMAInterrupt_in $end
$var wire 1 W" DMAInterrupt_out $end
$var wire 1 X" ErrInterrupt_in $end
$var wire 1 Y" ErrInterrupt_out $end
$var wire 1 Z" TransferComplete_in $end
$var wire 1 [" TransferComplete_out $end
$var wire 1 + clk $end
$var wire 16 \" data_in [15:0] $end
$var wire 1 F enb_block0 $end
$var wire 1 . rst $end
$var reg 1 ]" ack $end
$var reg 16 ^" data_out [15:0] $end
$upscope $end
$scope module R032h $end
$var wire 1 _" ADMAErr_in $end
$var wire 1 `" ADMAErr_out $end
$var wire 1 a" AutoCMD12Err_in $end
$var wire 1 b" AutoCMD12Err_out $end
$var wire 1 c" CommandCRCErr_in $end
$var wire 1 d" CommandCRCErr_out $end
$var wire 1 e" CommandEndBitErr_in $end
$var wire 1 f" CommandEndBitErr_out $end
$var wire 1 g" CommandIndexErr_in $end
$var wire 1 h" CommandIndexErr_out $end
$var wire 1 i" CommandTimeoutErr_in $end
$var wire 1 j" CommandTimeoutErr_out $end
$var wire 1 k" CurrentLimitErr_in $end
$var wire 1 l" CurrentLimitErr_out $end
$var wire 1 m" DataCRCErr_in $end
$var wire 1 n" DataCRCErr_out $end
$var wire 1 o" DataEndBitErr_in $end
$var wire 1 p" DataEndBitErr_out $end
$var wire 1 q" DataTimeoutErr_in $end
$var wire 1 r" DataTimeoutErr_out $end
$var wire 4 s" VendorErr_in [3:0] $end
$var wire 4 t" VendorErr_out [3:0] $end
$var wire 1 + clk $end
$var wire 16 u" data_in [15:0] $end
$var wire 1 . rst $end
$var reg 16 v" data_out [15:0] $end
$upscope $end
$scope module R024h $end
$var wire 1 w" BufferReadEnable_in $end
$var wire 1 x" BufferReadEnable_out $end
$var wire 1 y" BufferWriteEnable_in $end
$var wire 1 z" BufferWriteEnable_out $end
$var wire 1 {" CMDLineSignalLevel_in $end
$var wire 1 |" CMDLineSignalLevel_out $end
$var wire 1 }" CardDetectPinLevel_in $end
$var wire 1 ~" CardDetectPinLevel_out $end
$var wire 1 !# CardInserted_in $end
$var wire 1 "# CardInserted_out $end
$var wire 1 ## CardStateStable_in $end
$var wire 1 $# CardStateStable_out $end
$var wire 1 %# CommandInhibitcmd_in $end
$var wire 1 &# CommandInhibitcmd_out $end
$var wire 1 '# CommandInhibitdat_in $end
$var wire 1 (# CommandInhibitdat_out $end
$var wire 4 )# DAT3LineSignalLevel_in [3:0] $end
$var wire 4 *# DAT3LineSignalLevel_out [3:0] $end
$var wire 1 +# DATlineActive_in $end
$var wire 1 ,# DATlineActive_out $end
$var wire 1 -# ReadTransferActive_in $end
$var wire 1 .# ReadTransferActive_out $end
$var wire 1 /# WriteProtectSwitchPinLevel $end
$var wire 1 0# WriteProtectSwitchPinLevout $end
$var wire 1 1# WriteTransferActive_in $end
$var wire 1 2# WriteTransferActive_out $end
$var wire 1 + clk $end
$var wire 32 3# data_in [31:0] $end
$var wire 1 . rst $end
$var reg 32 4# data_out [31:0] $end
$upscope $end
$upscope $end
$upscope $end
$enddefinitions $end
#0
$dumpvars
bx 4#
b111111100000101000000000 3#
x2#
01#
x0#
1/#
x.#
1-#
x,#
0+#
bx *#
b1111 )#
x(#
0'#
x&#
0%#
x$#
1##
x"#
0!#
x~"
1}"
x|"
0{"
xz"
0y"
xx"
1w"
bx v"
b1111001010100001 u"
bx t"
b1111 s"
xr"
0q"
xp"
0o"
xn"
1m"
xl"
1k"
xj"
1i"
xh"
0g"
xf"
0e"
xd"
0c"
xb"
0a"
x`"
1_"
bx ^"
0]"
b1000000101011100 \"
x["
0Z"
xY"
1X"
xW"
1V"
xU"
xT"
0S"
xR"
1Q"
xP"
1O"
xN"
1M"
xL"
0K"
xJ"
1I"
bx H"
0G"
b0 F"
bx E"
b0 D"
bx C"
b10111110101111101011111010111110 B"
bx A"
b10111110101111101011111010111110 @"
bx ?"
b11001111001010 >"
bx ="
b10 <"
x;"
0:"
bx 9"
b11 8"
x7"
06"
bx 5"
b110011 4"
x3"
12"
x1"
x0"
bx /"
b0 ."
x-"
x,"
bx +"
x*"
b0 )"
x("
b0 '"
0&"
b1 %"
bx000000000000000 $"
0#"
0""
0!"
0~
0}
0|
b10 {
0z
0y
0x
0w
b0 v
0u
0t
bx s
zr
xq
bx000000000000000 p
0o
xn
0m
bx l
0k
0j
0i
0h
xg
xf
b0 e
0d
b1 c
b0 b
b10 a
0`
0_
0^
0]
b0 \
0[
bx Z
bx000000000000000 Y
bx X
xW
0V
0U
0T
bx000000000000000 S
b0 R
zQ
xP
0O
b0 N
bx M
bx L
0K
0J
bx I
b0 H
0G
0F
0E
0D
0C
bx00xxxxxxxxxx B
b1111111010100001 A
bx000000xxxxxxxxx @
b111111010101110x ?
b0xxxxxxxxx0000xxxx00000xxx >
b11001010111111101100101011110000 =
b0xxxxxxxxxxx0xx <
b11001111001010 ;
bx :
b10111110101111101011111010111110 9
08
17
06
05
b1111111010100001 4
b111111010101110x 3
b11001010111111101100101011110000 2
b11001111001010 1
b10111110101111101011111010111110 0
0/
1.
x-
0,
0+
bx00xxxxxxxxxx *
b1111111010100001 )
bx000000xxxxxxxxx (
b111111010101110x '
b0xxxxxxxxx0000xxxx00000xxx &
b11001010111111101100101011110000 %
b0xxxxxxxxxxx0xx $
b11001111001010 #
bx "
b10111110101111101011111010111110 !
$end
#1000
1#"
1`
1O
b0 M
b0 Z
0W
0P
b0 5"
b0 9"
0;"
07"
03"
b0 ="
b0 $
b0 <
1G"
1D
0Y"
0R"
0T"
0P"
0L"
0N"
0W"
0J"
0["
0U"
b0 (
b0 @
b0 t"
0`"
0b"
0l"
0p"
0n"
0r"
0h"
0f"
0d"
0j"
b0 *
b0 B
0|"
b0 *#
00#
0~"
0$#
0"#
0x"
0z"
0.#
02#
0,#
0(#
0&#
b0 &
b0 >
bx000000000000000 $"
b10 %"
z0"
zg
z1"
z-
b10 c
b0 ?"
b0 C"
b0 "
b0 :
b0 L
b0 X
b0 A"
b0 H"
b0 I
b0 E"
b0 ^"
b0 v"
b0 4#
0*"
0-"
0n
18
1/
15
1+
#2000
1""
1o
0("
0q
08
0/
05
0+
16
1,
07
0.
#3000
1W
b110011 M
b110011 Z
b1111 *#
10#
1~"
1$#
1x"
1.#
b111111100000101000000000 &
b111111100000101000000000 >
b1111 t"
1`"
1l"
1n"
1j"
b1111001010100001 *
b1111001010100001 B
1]"
1C
1Y"
1R"
1P"
1N"
1W"
1J"
b1000000101011100 (
b1000000101011100 @
b110011 5"
b11 9"
13"
b10 ="
b11001111001010 $
b11001111001010 <
b0 /"
b0 l
b0 s
b0 +"
0,"
0f
b111111100000101000000000 4#
b1111001010100001 v"
b1000000101011100 ^"
b10111110101111101011111010111110 C"
b10111110101111101011111010111110 "
b10111110101111101011111010111110 :
b10111110101111101011111010111110 L
b10111110101111101011111010111110 X
b10111110101111101011111010111110 A"
b11001111001010 ?"
18
1/
15
1+
#4000
08
0/
05
0+
06
0,
#5000
18
1/
15
1+
#6000
08
0/
05
0+
16
1,
#7000
18
1/
15
1+
#8000
08
0/
05
0+
06
0,
#9000
18
1/
15
1+
#10000
08
0/
05
0+
16
1,
#11000
18
1/
15
1+
#12000
08
0/
05
0+
06
0,
#13000
18
1/
15
1+
#14000
08
0/
05
0+
16
1,
#15000
18
1/
15
1+
#16000
08
0/
05
0+
06
0,
#17000
18
1/
15
1+
#18000
08
0/
05
0+
16
1,
#19000
18
1/
15
1+
#20000
08
0/
05
0+
06
0,
#21000
18
1/
15
1+
#22000
08
0/
05
0+
16
1,
#23000
18
1/
15
1+
#24000
08
0/
05
0+
06
0,
#25000
18
1/
15
1+
#26000
08
0/
05
0+
16
1,
#27000
18
1/
15
1+
#28000
08
0/
05
0+
06
0,
#29000
18
1/
15
1+
#30000
08
0/
05
0+
16
1,
#31000
18
1/
15
1+
#32000
b111111100000101000000001 3#
1%#
08
0/
05
0+
06
0,
b11001010111111101100101011110001 2
b11001010111111101100101011110001 %
b11001010111111101100101011110001 =
#33000
0`
0O
b100 a
1P
1&#
b111111100000101000000001 &
b111111100000101000000001 >
b111111100000101000000001 4#
18
1/
15
1+
#34000
08
0/
05
0+
16
1,
#35000
b100 {
b1000 a
b111001110111110101111101011111010111110 N
b111001110111110101111101011111010111110 e
b111001110111110101111101011111010111110 '"
b111001110111110101111101011111010111110 \
1d
1U
b100 c
18
1/
15
1+
#36000
08
0/
05
0+
06
0,
#37000
1!"
1|
1k
1}
1m
1w
1h
b100 %"
b1000 c
18
1/
15
1+
#38000
0""
0o
08
0/
05
0+
16
1,
#39000
01"
0-
b111001110111110101111101011111010111110 +"
b1000 {
18
1/
15
1+
#40000
08
0/
05
0+
06
0,
#41000
1z
1j
b1000 %"
18
1/
15
1+
#42000
08
0/
05
0+
16
1,
#43000
b1 )"
18
1/
15
1+
#44000
08
0/
05
0+
06
0,
#45000
1,"
1f
b10 )"
18
1/
15
1+
#46000
08
0/
05
0+
16
1,
#47000
11"
1-
b11 )"
18
1/
15
1+
#48000
08
0/
05
0+
06
0,
#49000
b100 )"
18
1/
15
1+
#50000
08
0/
05
0+
16
1,
#51000
b101 )"
0,"
0f
18
1/
15
1+
#52000
08
0/
05
0+
06
0,
#53000
b110 )"
01"
0-
18
1/
15
1+
#54000
08
0/
05
0+
16
1,
#55000
b111 )"
1,"
1f
18
1/
15
1+
#56000
08
0/
05
0+
06
0,
#57000
b1000 )"
11"
1-
18
1/
15
1+
#58000
08
0/
05
0+
16
1,
#59000
b1001 )"
18
1/
15
1+
#60000
08
0/
05
0+
06
0,
#61000
0,"
0f
b1010 )"
18
1/
15
1+
#62000
08
0/
05
0+
16
1,
#63000
01"
0-
b1011 )"
1,"
1f
18
1/
15
1+
#64000
08
0/
05
0+
06
0,
#65000
b1100 )"
11"
1-
18
1/
15
1+
#66000
08
0/
05
0+
16
1,
#67000
b1101 )"
18
1/
15
1+
#68000
08
0/
05
0+
06
0,
#69000
b1110 )"
18
1/
15
1+
#70000
08
0/
05
0+
16
1,
#71000
b1111 )"
18
1/
15
1+
#72000
08
0/
05
0+
06
0,
#73000
0,"
0f
b10000 )"
18
1/
15
1+
#74000
08
0/
05
0+
16
1,
#75000
01"
0-
b10001 )"
1,"
1f
18
1/
15
1+
#76000
08
0/
05
0+
06
0,
#77000
0,"
0f
b10010 )"
11"
1-
18
1/
15
1+
#78000
08
0/
05
0+
16
1,
#79000
01"
0-
b10011 )"
1,"
1f
18
1/
15
1+
#80000
08
0/
05
0+
06
0,
#81000
b10100 )"
11"
1-
18
1/
15
1+
#82000
08
0/
05
0+
16
1,
#83000
b10101 )"
18
1/
15
1+
#84000
08
0/
05
0+
06
0,
#85000
b10110 )"
18
1/
15
1+
#86000
08
0/
05
0+
16
1,
#87000
b10111 )"
18
1/
15
1+
#88000
08
0/
05
0+
06
0,
#89000
0,"
0f
b11000 )"
18
1/
15
1+
#90000
08
0/
05
0+
16
1,
#91000
01"
0-
b11001 )"
1,"
1f
18
1/
15
1+
#92000
08
0/
05
0+
06
0,
#93000
0,"
0f
b11010 )"
11"
1-
18
1/
15
1+
#94000
08
0/
05
0+
16
1,
#95000
01"
0-
b11011 )"
1,"
1f
18
1/
15
1+
#96000
08
0/
05
0+
06
0,
#97000
b11100 )"
11"
1-
18
1/
15
1+
#98000
08
0/
05
0+
16
1,
#99000
b11101 )"
18
1/
15
1+
#100000
08
0/
05
0+
06
0,
#101000
b11110 )"
18
1/
15
1+
#102000
08
0/
05
0+
16
1,
#103000
b11111 )"
18
1/
15
1+
#104000
08
0/
05
0+
06
0,
#105000
0,"
0f
b100000 )"
18
1/
15
1+
#106000
08
0/
05
0+
16
1,
#107000
01"
0-
b100001 )"
1,"
1f
18
1/
15
1+
#108000
08
0/
05
0+
06
0,
#109000
0,"
0f
b100010 )"
11"
1-
18
1/
15
1+
#110000
08
0/
05
0+
16
1,
#111000
01"
0-
b100011 )"
1,"
1f
18
1/
15
1+
#112000
08
0/
05
0+
06
0,
#113000
b100100 )"
11"
1-
18
1/
15
1+
#114000
08
0/
05
0+
16
1,
#115000
b100101 )"
18
1/
15
1+
#116000
08
0/
05
0+
06
0,
#117000
b100110 )"
18
1/
15
1+
#118000
08
0/
05
0+
16
1,
#119000
b100111 )"
18
1/
15
1+
#120000
08
0/
05
0+
06
0,
#121000
0,"
0f
b0 )"
1*"
18
1/
15
1+
#122000
b10000 {
1("
1q
08
0/
05
0+
16
1,
#123000
1y
0|
0k
01"
0-
b1 )"
b10000 %"
0*"
18
1/
15
1+
#124000
0("
0q
b1 v
08
0/
05
0+
06
0,
#125000
1x
1i
1,"
1f
b10 )"
00"
0g
z1"
z-
18
1/
15
1+
#126000
b10 v
08
0/
05
0+
16
1,
#127000
10"
1g
b0 /"
b11 )"
b1 ."
18
1/
15
1+
#128000
b11 v
08
0/
05
0+
06
0,
#129000
b100 )"
b100000000000000000000000000000000000000000000000000000000000000000000000000000000000000000000000000000000000000000000000000000 /"
b100000000000000000000000000000000000000000000000000000000000000000000000000000000000000000000000000000000000000000000000000000 l
b100000000000000000000000000000000000000000000000000000000000000000000000000000000000000000000000000000000000000000000000000000 s
00"
0g
b10 ."
18
1/
15
1+
#130000
b100 v
08
0/
05
0+
16
1,
#131000
10"
1g
b0 /"
b0 l
b0 s
b101 )"
0,"
0f
b11 ."
18
1/
15
1+
#132000
b101 v
08
0/
05
0+
06
0,
#133000
b110 )"
b1000000000000000000000000000000000000000000000000000000000000000000000000000000000000000000000000000000000000000000000000000 /"
b1000000000000000000000000000000000000000000000000000000000000000000000000000000000000000000000000000000000000000000000000000 l
b1000000000000000000000000000000000000000000000000000000000000000000000000000000000000000000000000000000000000000000000000000 s
00"
0g
b100 ."
18
1/
15
1+
#134000
b110 v
08
0/
05
0+
16
1,
#135000
10"
1g
b0 /"
b0 l
b0 s
b111 )"
1,"
1f
b101 ."
18
1/
15
1+
#136000
b111 v
08
0/
05
0+
06
0,
#137000
b1000 )"
b10000000000000000000000000000000000000000000000000000000000000000000000000000000000000000000000000000000000000000000000000 /"
b10000000000000000000000000000000000000000000000000000000000000000000000000000000000000000000000000000000000000000000000000 l
b10000000000000000000000000000000000000000000000000000000000000000000000000000000000000000000000000000000000000000000000000 s
00"
0g
b110 ."
18
1/
15
1+
#138000
b1000 v
08
0/
05
0+
16
1,
#139000
10"
1g
b0 /"
b0 l
b0 s
b1001 )"
b111 ."
18
1/
15
1+
#140000
b1001 v
08
0/
05
0+
06
0,
#141000
0,"
0f
b1010 )"
b100000000000000000000000000000000000000000000000000000000000000000000000000000000000000000000000000000000000000000000000 /"
b100000000000000000000000000000000000000000000000000000000000000000000000000000000000000000000000000000000000000000000000 l
b100000000000000000000000000000000000000000000000000000000000000000000000000000000000000000000000000000000000000000000000 s
00"
0g
b1000 ."
18
1/
15
1+
#142000
b1010 v
08
0/
05
0+
16
1,
#143000
10"
1g
b0 /"
b0 l
b0 s
b1011 )"
1,"
1f
b1001 ."
18
1/
15
1+
#144000
b1011 v
08
0/
05
0+
06
0,
#145000
b1100 )"
b1000000000000000000000000000000000000000000000000000000000000000000000000000000000000000000000000000000000000000000000 /"
b1000000000000000000000000000000000000000000000000000000000000000000000000000000000000000000000000000000000000000000000 l
b1000000000000000000000000000000000000000000000000000000000000000000000000000000000000000000000000000000000000000000000 s
00"
0g
b1010 ."
18
1/
15
1+
#146000
b1100 v
08
0/
05
0+
16
1,
#147000
10"
1g
b0 /"
b0 l
b0 s
b1101 )"
b1011 ."
18
1/
15
1+
#148000
b1101 v
08
0/
05
0+
06
0,
#149000
b1110 )"
b10000000000000000000000000000000000000000000000000000000000000000000000000000000000000000000000000000000000000000000 /"
b10000000000000000000000000000000000000000000000000000000000000000000000000000000000000000000000000000000000000000000 l
b10000000000000000000000000000000000000000000000000000000000000000000000000000000000000000000000000000000000000000000 s
00"
0g
b1100 ."
18
1/
15
1+
#150000
b1110 v
08
0/
05
0+
16
1,
#151000
10"
1g
b0 /"
b0 l
b0 s
b1111 )"
b1101 ."
18
1/
15
1+
#152000
b1111 v
08
0/
05
0+
06
0,
#153000
0,"
0f
b10000 )"
b100000000000000000000000000000000000000000000000000000000000000000000000000000000000000000000000000000000000000000 /"
b100000000000000000000000000000000000000000000000000000000000000000000000000000000000000000000000000000000000000000 l
b100000000000000000000000000000000000000000000000000000000000000000000000000000000000000000000000000000000000000000 s
00"
0g
b1110 ."
18
1/
15
1+
#154000
b10000 v
08
0/
05
0+
16
1,
#155000
10"
1g
b0 /"
b0 l
b0 s
b10001 )"
1,"
1f
b1111 ."
18
1/
15
1+
#156000
b10001 v
08
0/
05
0+
06
0,
#157000
0,"
0f
b10010 )"
b1000000000000000000000000000000000000000000000000000000000000000000000000000000000000000000000000000000000000000 /"
b1000000000000000000000000000000000000000000000000000000000000000000000000000000000000000000000000000000000000000 l
b1000000000000000000000000000000000000000000000000000000000000000000000000000000000000000000000000000000000000000 s
00"
0g
b10000 ."
18
1/
15
1+
#158000
b10010 v
08
0/
05
0+
16
1,
#159000
10"
1g
b0 /"
b0 l
b0 s
b10011 )"
1,"
1f
b10001 ."
18
1/
15
1+
#160000
b10011 v
08
0/
05
0+
06
0,
#161000
b10100 )"
b10000000000000000000000000000000000000000000000000000000000000000000000000000000000000000000000000000000000000 /"
b10000000000000000000000000000000000000000000000000000000000000000000000000000000000000000000000000000000000000 l
b10000000000000000000000000000000000000000000000000000000000000000000000000000000000000000000000000000000000000 s
00"
0g
b10010 ."
18
1/
15
1+
#162000
b10100 v
08
0/
05
0+
16
1,
#163000
10"
1g
b0 /"
b0 l
b0 s
b10101 )"
b10011 ."
18
1/
15
1+
#164000
b10101 v
08
0/
05
0+
06
0,
#165000
b10110 )"
b100000000000000000000000000000000000000000000000000000000000000000000000000000000000000000000000000000000000 /"
b100000000000000000000000000000000000000000000000000000000000000000000000000000000000000000000000000000000000 l
b100000000000000000000000000000000000000000000000000000000000000000000000000000000000000000000000000000000000 s
00"
0g
b10100 ."
18
1/
15
1+
#166000
b10110 v
08
0/
05
0+
16
1,
#167000
10"
1g
b0 /"
b0 l
b0 s
b10111 )"
b10101 ."
18
1/
15
1+
#168000
b10111 v
08
0/
05
0+
06
0,
#169000
0,"
0f
b11000 )"
b1000000000000000000000000000000000000000000000000000000000000000000000000000000000000000000000000000000000 /"
b1000000000000000000000000000000000000000000000000000000000000000000000000000000000000000000000000000000000 l
b1000000000000000000000000000000000000000000000000000000000000000000000000000000000000000000000000000000000 s
00"
0g
b10110 ."
18
1/
15
1+
#170000
b11000 v
08
0/
05
0+
16
1,
#171000
10"
1g
b0 /"
b0 l
b0 s
b11001 )"
1,"
1f
b10111 ."
18
1/
15
1+
#172000
b11001 v
08
0/
05
0+
06
0,
#173000
0,"
0f
b11010 )"
b10000000000000000000000000000000000000000000000000000000000000000000000000000000000000000000000000000000 /"
b10000000000000000000000000000000000000000000000000000000000000000000000000000000000000000000000000000000 l
b10000000000000000000000000000000000000000000000000000000000000000000000000000000000000000000000000000000 s
00"
0g
b11000 ."
18
1/
15
1+
#174000
b11010 v
08
0/
05
0+
16
1,
#175000
10"
1g
b0 /"
b0 l
b0 s
b11011 )"
1,"
1f
b11001 ."
18
1/
15
1+
#176000
b11011 v
08
0/
05
0+
06
0,
#177000
b11100 )"
b100000000000000000000000000000000000000000000000000000000000000000000000000000000000000000000000000000 /"
b100000000000000000000000000000000000000000000000000000000000000000000000000000000000000000000000000000 l
b100000000000000000000000000000000000000000000000000000000000000000000000000000000000000000000000000000 s
00"
0g
b11010 ."
18
1/
15
1+
#178000
b11100 v
08
0/
05
0+
16
1,
#179000
10"
1g
b0 /"
b0 l
b0 s
b11101 )"
b11011 ."
18
1/
15
1+
#180000
b11101 v
08
0/
05
0+
06
0,
#181000
b11110 )"
b1000000000000000000000000000000000000000000000000000000000000000000000000000000000000000000000000000 /"
b1000000000000000000000000000000000000000000000000000000000000000000000000000000000000000000000000000 l
b1000000000000000000000000000000000000000000000000000000000000000000000000000000000000000000000000000 s
00"
0g
b11100 ."
18
1/
15
1+
#182000
b11110 v
08
0/
05
0+
16
1,
#183000
10"
1g
b0 /"
b0 l
b0 s
b11111 )"
b11101 ."
18
1/
15
1+
#184000
b11111 v
08
0/
05
0+
06
0,
#185000
0,"
0f
b100000 )"
b10000000000000000000000000000000000000000000000000000000000000000000000000000000000000000000000000 /"
b10000000000000000000000000000000000000000000000000000000000000000000000000000000000000000000000000 l
b10000000000000000000000000000000000000000000000000000000000000000000000000000000000000000000000000 s
00"
0g
b11110 ."
18
1/
15
1+
#186000
b100000 v
08
0/
05
0+
16
1,
#187000
10"
1g
b0 /"
b0 l
b0 s
b100001 )"
1,"
1f
b11111 ."
18
1/
15
1+
#188000
b100001 v
08
0/
05
0+
06
0,
#189000
0,"
0f
b100010 )"
b100000000000000000000000000000000000000000000000000000000000000000000000000000000000000000000000 /"
b100000000000000000000000000000000000000000000000000000000000000000000000000000000000000000000000 l
b100000000000000000000000000000000000000000000000000000000000000000000000000000000000000000000000 s
00"
0g
b100000 ."
18
1/
15
1+
#190000
b100010 v
08
0/
05
0+
16
1,
#191000
10"
1g
b0 /"
b0 l
b0 s
b100011 )"
1,"
1f
b100001 ."
18
1/
15
1+
#192000
b100011 v
08
0/
05
0+
06
0,
